Record Length,2.500000e+03,,  -0.000000050000,   0.20000,
Sample Interval,2.000000e-10,,  -0.000000049800,   0.20000,
Trigger Point,2.500000000000e+02,,  -0.000000049600,   0.40000,
,,,  -0.000000049400,   0.20000,
,,,  -0.000000049200,   0.20000,
,,,  -0.000000049000,   0.20000,
Source,CH1,,  -0.000000048800,   0.20000,
Vertical Units,V,,  -0.000000048600,   0.40000,
Vertical Scale,5.000000e+00,,  -0.000000048400,   0.40000,
Vertical Offset,1.240000e+01,,  -0.000000048200,   0.40000,
Horizontal Units,s,,  -0.000000048000,   0.20000,
Horizontal Scale,5.000000e-08,,  -0.000000047800,   0.20000,
Pt Fmt,Y,,  -0.000000047600,   0.20000,
Yzero,0.000000e+00,,  -0.000000047400,   0.00000,
Probe Atten,1.000000e+00,,  -0.000000047200,   0.20000,
Model Number,TDS2024C,,  -0.000000047000,   0.20000,
Serial Number,C019530,,  -0.000000046800,   0.20000,
Firmware Version,FV:v24.18,,  -0.000000046600,   0.40000,
,,,-00.000000046400,   0.20000,
,,,-00.000000046200,   0.20000,
,,,-00.000000046000,   0.00000,
,,,-00.000000045800,   0.00000,
,,,-00.000000045600,   0.00000,
,,,-00.000000045400,   0.00000,
,,,-00.000000045200,   0.00000,
,,,-00.000000045000,   0.20000,
,,,-00.000000044800,   0.20000,
,,,-00.000000044600,   0.20000,
,,,-00.000000044400,   0.20000,
,,,-00.000000044200,   0.20000,
,,,-00.000000044000,   0.20000,
,,,-00.000000043800,   0.20000,
,,,-00.000000043600,   0.20000,
,,,-00.000000043400,   0.20000,
,,,-00.000000043200,   0.20000,
,,,-00.000000043000,   0.20000,
,,,-00.000000042800,   0.20000,
,,,-00.000000042600,   0.20000,
,,,-00.000000042400,   0.00000,
,,,-00.000000042200,   0.00000,
,,,-00.000000042000,   0.00000,
,,,-00.000000041800,   0.00000,
,,,-00.000000041600,   0.20000,
,,,-00.000000041400,   0.00000,
,,,-00.000000041200,   0.00000,
,,,-00.000000041000,   0.00000,
,,,-00.000000040800,  -0.20000,
,,,-00.000000040600,   0.00000,
,,,-00.000000040400,   0.00000,
,,,-00.000000040200,   0.00000,
,,,-00.000000040000,   0.00000,
,,,-00.000000039800,   0.00000,
,,,-00.000000039600,   0.00000,
,,,-00.000000039400,  -0.20000,
,,,-00.000000039200,   0.00000,
,,,-00.000000039000,   0.00000,
,,,-00.000000038800,   0.00000,
,,,-00.000000038600,   0.20000,
,,,-00.000000038400,   0.00000,
,,,-00.000000038200,   0.00000,
,,,-00.000000038000,   0.00000,
,,,-00.000000037800,  -0.20000,
,,,-00.000000037600,   0.00000,
,,,-00.000000037400,   0.00000,
,,,-00.000000037200,   0.00000,
,,,-00.000000037000,   0.00000,
,,,-00.000000036800,   0.00000,
,,,-00.000000036600,   0.00000,
,,,-00.000000036400,  -0.20000,
,,,-00.000000036200,   0.00000,
,,,-00.000000036000,   0.00000,
,,,-00.000000035800,   0.00000,
,,,-00.000000035600,   0.20000,
,,,-00.000000035400,   0.20000,
,,,-00.000000035200,   0.20000,
,,,-00.000000035000,   0.20000,
,,,-00.000000034800,   0.20000,
,,,-00.000000034600,   0.20000,
,,,-00.000000034400,   0.20000,
,,,-00.000000034200,   0.20000,
,,,-00.000000034000,   0.20000,
,,,-00.000000033800,   0.20000,
,,,-00.000000033600,   0.20000,
,,,-00.000000033400,   0.20000,
,,,-00.000000033200,   0.20000,
,,,-00.000000033000,   0.00000,
,,,-00.000000032800,   0.00000,
,,,-00.000000032600,   0.00000,
,,,-00.000000032400,   0.00000,
,,,-00.000000032200,   0.00000,
,,,-00.000000032000,   0.00000,
,,,-00.000000031800,   0.00000,
,,,-00.000000031600,   0.00000,
,,,-00.000000031400,  -0.20000,
,,,-00.000000031200,   0.00000,
,,,-00.000000031000,   0.00000,
,,,-00.000000030800,   0.00000,
,,,-00.000000030600,   0.20000,
,,,-00.000000030400,   0.20000,
,,,-00.000000030200,   0.20000,
,,,-00.000000030000,   0.20000,
,,,-00.000000029800,   0.20000,
,,,-00.000000029600,   0.40000,
,,,-00.000000029400,   0.40000,
,,,-00.000000029200,   0.40000,
,,,-00.000000029000,   0.20000,
,,,-00.000000028800,   0.20000,
,,,-00.000000028600,   0.20000,
,,,-00.000000028400,   0.00000,
,,,-00.000000028200,   0.20000,
,,,-00.000000028000,   0.20000,
,,,-00.000000027800,   0.20000,
,,,-00.000000027600,   0.40000,
,,,-00.000000027400,   0.40000,
,,,-00.000000027200,   0.40000,
,,,-00.000000027000,   0.40000,
,,,-00.000000026800,   0.40000,
,,,-00.000000026600,   0.40000,
,,,-00.000000026400,   0.20000,
,,,-00.000000026200,   0.20000,
,,,-00.000000026000,   0.20000,
,,,-00.000000025800,   0.20000,
,,,-00.000000025600,   0.40000,
,,,-00.000000025400,   0.40000,
,,,-00.000000025200,   0.40000,
,,,-00.000000025000,   0.20000,
,,,-00.000000024800,   0.20000,
,,,-00.000000024600,   0.20000,
,,,-00.000000024400,   0.00000,
,,,-00.000000024200,   0.00000,
,,,-00.000000024000,   0.00000,
,,,-00.000000023800,   0.00000,
,,,-00.000000023600,   0.20000,
,,,-00.000000023400,   0.20000,
,,,-00.000000023200,   0.20000,
,,,-00.000000023000,   0.00000,
,,,-00.000000022800,   0.00000,
,,,-00.000000022600,   0.00000,
,,,-00.000000022400,  -0.20000,
,,,-00.000000022200,   0.00000,
,,,-00.000000022000,   0.00000,
,,,-00.000000021800,   0.00000,
,,,-00.000000021600,   0.20000,
,,,-00.000000021400,   0.20000,
,,,-00.000000021200,   0.20000,
,,,-00.000000021000,   0.20000,
,,,-00.000000020800,   0.20000,
,,,-00.000000020600,   0.20000,
,,,-00.000000020400,   0.00000,
,,,-00.000000020200,   0.00000,
,,,-00.000000020000,   0.00000,
,,,-00.000000019800,   0.00000,
,,,-00.000000019600,   0.20000,
,,,-00.000000019400,   0.20000,
,,,-00.000000019200,   0.20000,
,,,-00.000000019000,   0.20000,
,,,-00.000000018800,   0.20000,
,,,-00.000000018600,   0.20000,
,,,-00.000000018400,   0.20000,
,,,-00.000000018200,   0.20000,
,,,-00.000000018000,   0.00000,
,,,-00.000000017800,   0.00000,
,,,-00.000000017600,   0.00000,
,,,-00.000000017400,  -0.20000,
,,,-00.000000017200,   0.00000,
,,,-00.000000017000,   0.00000,
,,,-00.000000016800,   0.00000,
,,,-00.000000016600,   0.20000,
,,,-00.000000016400,   0.20000,
,,,-00.000000016200,   0.40000,
,,,-00.000000016000,   0.40000,
,,,-00.000000015800,   0.20000,
,,,-00.000000015600,   0.20000,
,,,-00.000000015400,   0.00000,
,,,-00.000000015200,   0.00000,
,,,-00.000000015000,   0.00000,
,,,-00.000000014800,   0.00000,
,,,-00.000000014600,   0.20000,
,,,-00.000000014400,   0.20000,
,,,-00.000000014200,   0.20000,
,,,-00.000000014000,   0.20000,
,,,-00.000000013800,   0.20000,
,,,-00.000000013600,   0.40000,
,,,-00.000000013400,   0.40000,
,,,-00.000000013200,   0.40000,
,,,-00.000000013000,   0.60000,
,,,-00.000000012800,   0.80000,
,,,-00.000000012600,   1.00000,
,,,-00.000000012400,   1.00000,
,,,-00.000000012200,   1.20000,
,,,-00.000000012000,   1.40000,
,,,-00.000000011800,   1.60000,
,,,-00.000000011600,   2.00000,
,,,-00.000000011400,   2.20000,
,,,-00.000000011200,   2.20000,
,,,-00.000000011000,   2.40000,
,,,-00.000000010800,   2.40000,
,,,-00.000000010600,   2.60000,
,,,-00.000000010400,   2.60000,
,,,-00.000000010200,   2.80000,
,,,-00.000000010000,   2.60000,
,,,-00.000000009800,   2.60000,
,,,-00.000000009600,   2.60000,
,,,-00.000000009400,   2.40000,
,,,-00.000000009200,   2.60000,
,,,-00.000000009000,   2.60000,
,,,-00.000000008800,   2.60000,
,,,-00.000000008600,   2.80000,
,,,-00.000000008400,   2.60000,
,,,-00.000000008200,   2.60000,
,,,-00.000000008000,   2.60000,
,,,-00.000000007800,   2.60000,
,,,-00.000000007600,   2.80000,
,,,-00.000000007400,   2.80000,
,,,-00.000000007200,   2.80000,
,,,-00.000000007000,   3.00000,
,,,-00.000000006800,   3.00000,
,,,-00.000000006600,   3.00000,
,,,-00.000000006400,   3.00000,
,,,-00.000000006200,   3.00000,
,,,-00.000000006000,   2.80000,
,,,-00.000000005800,   2.80000,
,,,-00.000000005600,   2.80000,
,,,-00.000000005400,   2.80000,
,,,-00.000000005200,   2.80000,
,,,-00.000000005000,   2.80000,
,,,-00.000000004800,   2.80000,
,,,-00.000000004600,   2.80000,
,,,-00.000000004400,   2.60000,
,,,-00.000000004200,   2.80000,
,,,-00.000000004000,   2.80000,
,,,-00.000000003800,   3.00000,
,,,-00.000000003600,   3.20000,
,,,-00.000000003400,   3.40000,
,,,-00.000000003200,   3.40000,
,,,-00.000000003000,   3.60000,
,,,-00.000000002800,   3.40000,
,,,-00.000000002600,   3.40000,
,,,-00.000000002400,   3.40000,
,,,-00.000000002200,   3.40000,
,,,-00.000000002000,   3.60000,
,,,-00.000000001800,   3.60000,
,,,-00.000000001600,   3.80000,
,,,-00.000000001400,   3.80000,
,,,-00.000000001200,   3.80000,
,,,-00.000000001000,   3.80000,
,,,-00.000000000800,   3.80000,
,,,-00.000000000600,   4.00000,
,,,-00.000000000400,   3.80000,
,,,-00.000000000200,   3.80000,
,,,-00.000000000000,   3.80000,
,,,00.000000000200,   3.80000,
,,,00.000000000400,   4.00000,
,,,00.000000000600,   4.00000,
,,,00.000000000800,   4.00000,
,,,00.000000001000,   4.20000,
,,,00.000000001200,   4.20000,
,,,00.000000001400,   4.40000,
,,,00.000000001600,   4.40000,
,,,00.000000001800,   4.40000,
,,,00.000000002000,   4.40000,
,,,00.000000002200,   4.40000,
,,,00.000000002400,   4.60000,
,,,00.000000002600,   4.60000,
,,,00.000000002800,   4.60000,
,,,00.000000003000,   4.40000,
,,,00.000000003200,   4.40000,
,,,00.000000003400,   4.40000,
,,,00.000000003600,   4.40000,
,,,00.000000003800,   4.40000,
,,,00.000000004000,   4.60000,
,,,00.000000004200,   4.60000,
,,,00.000000004400,   4.80000,
,,,00.000000004600,   4.80000,
,,,00.000000004800,   4.80000,
,,,00.000000005000,   4.80000,
,,,00.000000005200,   4.80000,
,,,00.000000005400,   4.80000,
,,,00.000000005600,   4.60000,
,,,00.000000005800,   4.60000,
,,,00.000000006000,   4.40000,
,,,00.000000006200,   4.40000,
,,,00.000000006400,   4.40000,
,,,00.000000006600,   4.20000,
,,,00.000000006800,   4.20000,
,,,00.000000007000,   4.20000,
,,,00.000000007200,   4.20000,
,,,00.000000007400,   4.40000,
,,,00.000000007600,   4.20000,
,,,00.000000007800,   4.20000,
,,,00.000000008000,   4.20000,
,,,00.000000008200,   4.20000,
,,,00.000000008400,   4.40000,
,,,00.000000008600,   4.20000,
,,,00.000000008800,   4.20000,
,,,00.000000009000,   4.00000,
,,,00.000000009200,   4.00000,
,,,00.000000009400,   4.00000,
,,,00.000000009600,   4.00000,
,,,00.000000009800,   4.00000,
,,,00.000000010000,   3.80000,
,,,00.000000010200,   3.80000,
,,,00.000000010400,   3.80000,
,,,00.000000010600,   3.60000,
,,,00.000000010800,   3.60000,
,,,00.000000011000,   3.40000,
,,,00.000000011200,   3.40000,
,,,00.000000011400,   3.40000,
,,,00.000000011600,   3.40000,
,,,00.000000011800,   3.40000,
,,,00.000000012000,   3.40000,
,,,00.000000012200,   3.40000,
,,,00.000000012400,   3.40000,
,,,00.000000012600,   3.20000,
,,,00.000000012800,   3.00000,
,,,00.000000013000,   2.80000,
,,,00.000000013200,   2.80000,
,,,00.000000013400,   3.00000,
,,,00.000000013600,   3.00000,
,,,00.000000013800,   3.20000,
,,,00.000000014000,   3.40000,
,,,00.000000014200,   3.40000,
,,,00.000000014400,   3.40000,
,,,00.000000014600,   3.20000,
,,,00.000000014800,   3.20000,
,,,00.000000015000,   3.20000,
,,,00.000000015200,   3.20000,
,,,00.000000015400,   3.20000,
,,,00.000000015600,   3.20000,
,,,00.000000015800,   3.20000,
,,,00.000000016000,   3.20000,
,,,00.000000016200,   3.20000,
,,,00.000000016400,   3.40000,
,,,00.000000016600,   3.20000,
,,,00.000000016800,   3.20000,
,,,00.000000017000,   3.00000,
,,,00.000000017200,   3.00000,
,,,00.000000017400,   3.20000,
,,,00.000000017600,   3.20000,
,,,00.000000017800,   3.40000,
,,,00.000000018000,   3.60000,
,,,00.000000018200,   3.40000,
,,,00.000000018400,   3.40000,
,,,00.000000018600,   3.20000,
,,,00.000000018800,   3.40000,
,,,00.000000019000,   3.40000,
,,,00.000000019200,   3.40000,
,,,00.000000019400,   3.60000,
,,,00.000000019600,   3.60000,
,,,00.000000019800,   3.60000,
,,,00.000000020000,   3.60000,
,,,00.000000020200,   3.60000,
,,,00.000000020400,   3.80000,
,,,00.000000020600,   3.80000,
,,,00.000000020800,   3.80000,
,,,00.000000021000,   3.60000,
,,,00.000000021200,   3.60000,
,,,00.000000021400,   3.60000,
,,,00.000000021600,   3.60000,
,,,00.000000021800,   3.60000,
,,,00.000000022000,   3.80000,
,,,00.000000022200,   3.80000,
,,,00.000000022400,   4.00000,
,,,00.000000022600,   3.80000,
,,,00.000000022800,   3.80000,
,,,00.000000023000,   3.80000,
,,,00.000000023200,   3.80000,
,,,00.000000023400,   3.80000,
,,,00.000000023600,   3.80000,
,,,00.000000023800,   3.80000,
,,,00.000000024000,   3.80000,
,,,00.000000024200,   3.80000,
,,,00.000000024400,   4.00000,
,,,00.000000024600,   4.00000,
,,,00.000000024800,   4.00000,
,,,00.000000025000,   3.80000,
,,,00.000000025200,   3.80000,
,,,00.000000025400,   3.80000,
,,,00.000000025600,   3.80000,
,,,00.000000025800,   3.80000,
,,,00.000000026000,   4.00000,
,,,00.000000026200,   4.00000,
,,,00.000000026400,   4.20000,
,,,00.000000026600,   4.00000,
,,,00.000000026800,   4.00000,
,,,00.000000027000,   3.80000,
,,,00.000000027200,   3.80000,
,,,00.000000027400,   3.80000,
,,,00.000000027600,   3.80000,
,,,00.000000027800,   3.80000,
,,,00.000000028000,   4.00000,
,,,00.000000028200,   4.00000,
,,,00.000000028400,   4.00000,
,,,00.000000028600,   3.80000,
,,,00.000000028800,   3.80000,
,,,00.000000029000,   3.80000,
,,,00.000000029200,   3.80000,
,,,00.000000029400,   4.00000,
,,,00.000000029600,   4.00000,
,,,00.000000029800,   4.20000,
,,,00.000000030000,   4.00000,
,,,00.000000030200,   4.00000,
,,,00.000000030400,   4.00000,
,,,00.000000030600,   4.00000,
,,,00.000000030800,   4.00000,
,,,00.000000031000,   4.00000,
,,,00.000000031200,   4.00000,
,,,00.000000031400,   4.00000,
,,,00.000000031600,   4.00000,
,,,00.000000031800,   4.00000,
,,,00.000000032000,   4.00000,
,,,00.000000032200,   4.00000,
,,,00.000000032400,   4.20000,
,,,00.000000032600,   4.20000,
,,,00.000000032800,   4.20000,
,,,00.000000033000,   4.20000,
,,,00.000000033200,   4.20000,
,,,00.000000033400,   4.40000,
,,,00.000000033600,   4.40000,
,,,00.000000033800,   4.40000,
,,,00.000000034000,   4.40000,
,,,00.000000034200,   4.40000,
,,,00.000000034400,   4.40000,
,,,00.000000034600,   4.40000,
,,,00.000000034800,   4.40000,
,,,00.000000035000,   4.40000,
,,,00.000000035200,   4.40000,
,,,00.000000035400,   4.40000,
,,,00.000000035600,   4.40000,
,,,00.000000035800,   4.40000,
,,,00.000000036000,   4.40000,
,,,00.000000036200,   4.40000,
,,,00.000000036400,   4.40000,
,,,00.000000036600,   4.40000,
,,,00.000000036800,   4.40000,
,,,00.000000037000,   4.40000,
,,,00.000000037200,   4.40000,
,,,00.000000037400,   4.40000,
,,,00.000000037600,   4.40000,
,,,00.000000037800,   4.40000,
,,,00.000000038000,   4.60000,
,,,00.000000038200,   4.60000,
,,,00.000000038400,   4.60000,
,,,00.000000038600,   4.60000,
,,,00.000000038800,   4.60000,
,,,00.000000039000,   4.40000,
,,,00.000000039200,   4.40000,
,,,00.000000039400,   4.40000,
,,,00.000000039600,   4.40000,
,,,00.000000039800,   4.40000,
,,,00.000000040000,   4.40000,
,,,00.000000040200,   4.40000,
,,,00.000000040400,   4.40000,
,,,00.000000040600,   4.20000,
,,,00.000000040800,   4.20000,
,,,00.000000041000,   4.20000,
,,,00.000000041200,   4.20000,
,,,00.000000041400,   4.20000,
,,,00.000000041600,   4.20000,
,,,00.000000041800,   4.20000,
,,,00.000000042000,   4.20000,
,,,00.000000042200,   4.20000,
,,,00.000000042400,   4.20000,
,,,00.000000042600,   4.00000,
,,,00.000000042800,   4.00000,
,,,00.000000043000,   3.80000,
,,,00.000000043200,   3.80000,
,,,00.000000043400,   3.80000,
,,,00.000000043600,   3.80000,
,,,00.000000043800,   3.80000,
,,,00.000000044000,   4.00000,
,,,00.000000044200,   4.00000,
,,,00.000000044400,   4.00000,
,,,00.000000044600,   4.00000,
,,,00.000000044800,   4.00000,
,,,00.000000045000,   3.80000,
,,,00.000000045200,   3.80000,
,,,00.000000045400,   3.80000,
,,,00.000000045600,   3.60000,
,,,00.000000045800,   3.80000,
,,,00.000000046000,   3.80000,
,,,00.000000046200,   3.80000,
,,,00.000000046400,   4.00000,
,,,00.000000046600,   3.80000,
,,,00.000000046800,   3.80000,
,,,00.000000047000,   3.60000,
,,,00.000000047200,   3.60000,
,,,00.000000047400,   3.60000,
,,,00.000000047600,   3.60000,
,,,00.000000047800,   3.60000,
,,,00.000000048000,   3.80000,
,,,00.000000048200,   3.80000,
,,,00.000000048400,   3.80000,
,,,00.000000048600,   3.80000,
,,,00.000000048800,   3.80000,
,,,00.000000049000,   4.00000,
,,,00.000000049200,   4.00000,
,,,00.000000049400,   4.00000,
,,,00.000000049600,   3.80000,
,,,00.000000049800,   3.80000,
,,,00.000000050000,   3.80000,
,,,00.000000050200,   3.60000,
,,,00.000000050400,   3.80000,
,,,00.000000050600,   3.80000,
,,,00.000000050800,   3.80000,
,,,00.000000051000,   3.80000,
,,,00.000000051200,   3.80000,
,,,00.000000051400,   3.80000,
,,,00.000000051600,   3.80000,
,,,00.000000051800,   3.80000,
,,,00.000000052000,   4.00000,
,,,00.000000052200,   4.00000,
,,,00.000000052400,   4.00000,
,,,00.000000052600,   4.00000,
,,,00.000000052800,   4.00000,
,,,00.000000053000,   4.00000,
,,,00.000000053200,   4.00000,
,,,00.000000053400,   4.00000,
,,,00.000000053600,   4.00000,
,,,00.000000053800,   4.00000,
,,,00.000000054000,   4.00000,
,,,00.000000054200,   4.00000,
,,,00.000000054400,   4.00000,
,,,00.000000054600,   4.00000,
,,,00.000000054800,   4.00000,
,,,00.000000055000,   4.00000,
,,,00.000000055200,   4.00000,
,,,00.000000055400,   4.00000,
,,,00.000000055600,   4.00000,
,,,00.000000055800,   4.00000,
,,,00.000000056000,   4.00000,
,,,00.000000056200,   4.00000,
,,,00.000000056400,   4.00000,
,,,00.000000056600,   4.00000,
,,,00.000000056800,   4.00000,
,,,00.000000057000,   4.00000,
,,,00.000000057200,   4.00000,
,,,00.000000057400,   4.00000,
,,,00.000000057600,   4.00000,
,,,00.000000057800,   4.00000,
,,,00.000000058000,   4.00000,
,,,00.000000058200,   4.00000,
,,,00.000000058400,   4.00000,
,,,00.000000058600,   4.00000,
,,,00.000000058800,   4.00000,
,,,00.000000059000,   4.20000,
,,,00.000000059200,   4.20000,
,,,00.000000059400,   4.20000,
,,,00.000000059600,   4.00000,
,,,00.000000059800,   4.00000,
,,,00.000000060000,   4.00000,
,,,00.000000060200,   3.80000,
,,,00.000000060400,   4.00000,
,,,00.000000060600,   4.00000,
,,,00.000000060800,   4.00000,
,,,00.000000061000,   4.20000,
,,,00.000000061200,   4.20000,
,,,00.000000061400,   4.20000,
,,,00.000000061600,   4.00000,
,,,00.000000061800,   4.00000,
,,,00.000000062000,   4.00000,
,,,00.000000062200,   4.00000,
,,,00.000000062400,   4.00000,
,,,00.000000062600,   3.80000,
,,,00.000000062800,   3.80000,
,,,00.000000063000,   3.80000,
,,,00.000000063200,   3.60000,
,,,00.000000063400,   3.80000,
,,,00.000000063600,   3.80000,
,,,00.000000063800,   3.80000,
,,,00.000000064000,   3.80000,
,,,00.000000064200,   3.80000,
,,,00.000000064400,   3.80000,
,,,00.000000064600,   3.80000,
,,,00.000000064800,   3.80000,
,,,00.000000065000,   4.00000,
,,,00.000000065200,   4.00000,
,,,00.000000065400,   4.20000,
,,,00.000000065600,   4.00000,
,,,00.000000065800,   4.00000,
,,,00.000000066000,   4.00000,
,,,00.000000066200,   4.20000,
,,,00.000000066400,   4.40000,
,,,00.000000066600,   4.40000,
,,,00.000000066800,   4.40000,
,,,00.000000067000,   4.40000,
,,,00.000000067200,   4.40000,
,,,00.000000067400,   4.40000,
,,,00.000000067600,   4.20000,
,,,00.000000067800,   4.20000,
,,,00.000000068000,   4.20000,
,,,00.000000068200,   4.00000,
,,,00.000000068400,   4.20000,
,,,00.000000068600,   4.20000,
,,,00.000000068800,   4.20000,
,,,00.000000069000,   4.40000,
,,,00.000000069200,   4.40000,
,,,00.000000069400,   4.40000,
,,,00.000000069600,   4.20000,
,,,00.000000069800,   4.20000,
,,,00.000000070000,   4.20000,
,,,00.000000070200,   4.20000,
,,,00.000000070400,   4.20000,
,,,00.000000070600,   4.20000,
,,,00.000000070800,   4.20000,
,,,00.000000071000,   4.20000,
,,,00.000000071200,   4.20000,
,,,00.000000071400,   4.20000,
,,,00.000000071600,   4.20000,
,,,00.000000071800,   4.20000,
,,,00.000000072000,   4.20000,
,,,00.000000072200,   4.20000,
,,,00.000000072400,   4.20000,
,,,00.000000072600,   4.20000,
,,,00.000000072800,   4.20000,
,,,00.000000073000,   4.20000,
,,,00.000000073200,   4.20000,
,,,00.000000073400,   4.20000,
,,,00.000000073600,   4.20000,
,,,00.000000073800,   4.20000,
,,,00.000000074000,   4.40000,
,,,00.000000074200,   4.40000,
,,,00.000000074400,   4.40000,
,,,00.000000074600,   4.20000,
,,,00.000000074800,   4.20000,
,,,00.000000075000,   4.20000,
,,,00.000000075200,   4.20000,
,,,00.000000075400,   4.20000,
,,,00.000000075600,   4.00000,
,,,00.000000075800,   4.00000,
,,,00.000000076000,   4.00000,
,,,00.000000076200,   4.00000,
,,,00.000000076400,   4.00000,
,,,00.000000076600,   4.00000,
,,,00.000000076800,   4.00000,
,,,00.000000077000,   4.00000,
,,,00.000000077200,   4.00000,
,,,00.000000077400,   4.00000,
,,,00.000000077600,   4.00000,
,,,00.000000077800,   4.00000,
,,,00.000000078000,   4.00000,
,,,00.000000078200,   4.00000,
,,,00.000000078400,   4.00000,
,,,00.000000078600,   4.00000,
,,,00.000000078800,   4.00000,
,,,00.000000079000,   4.00000,
,,,00.000000079200,   4.00000,
,,,00.000000079400,   4.00000,
,,,00.000000079600,   3.80000,
,,,00.000000079800,   3.80000,
,,,00.000000080000,   3.80000,
,,,00.000000080200,   3.60000,
,,,00.000000080400,   3.80000,
,,,00.000000080600,   3.80000,
,,,00.000000080800,   3.80000,
,,,00.000000081000,   3.80000,
,,,00.000000081200,   3.80000,
,,,00.000000081400,   3.80000,
,,,00.000000081600,   3.80000,
,,,00.000000081800,   3.80000,
,,,00.000000082000,   4.00000,
,,,00.000000082200,   4.00000,
,,,00.000000082400,   4.00000,
,,,00.000000082600,   4.00000,
,,,00.000000082800,   4.00000,
,,,00.000000083000,   4.00000,
,,,00.000000083200,   4.00000,
,,,00.000000083400,   4.00000,
,,,00.000000083600,   4.00000,
,,,00.000000083800,   4.00000,
,,,00.000000084000,   4.00000,
,,,00.000000084200,   4.00000,
,,,00.000000084400,   4.00000,
,,,00.000000084600,   4.00000,
,,,00.000000084800,   4.00000,
,,,00.000000085000,   4.00000,
,,,00.000000085200,   4.00000,
,,,00.000000085400,   4.00000,
,,,00.000000085600,   4.00000,
,,,00.000000085800,   4.00000,
,,,00.000000086000,   4.00000,
,,,00.000000086200,   4.00000,
,,,00.000000086400,   4.00000,
,,,00.000000086600,   4.00000,
,,,00.000000086800,   4.00000,
,,,00.000000087000,   4.00000,
,,,00.000000087200,   4.00000,
,,,00.000000087400,   4.20000,
,,,00.000000087600,   4.00000,
,,,00.000000087800,   4.00000,
,,,00.000000088000,   4.00000,
,,,00.000000088200,   4.00000,
,,,00.000000088400,   4.00000,
,,,00.000000088600,   4.00000,
,,,00.000000088800,   4.00000,
,,,00.000000089000,   4.00000,
,,,00.000000089200,   4.00000,
,,,00.000000089400,   4.20000,
,,,00.000000089600,   4.00000,
,,,00.000000089800,   4.00000,
,,,00.000000090000,   3.80000,
,,,00.000000090200,   3.80000,
,,,00.000000090400,   3.80000,
,,,00.000000090600,   3.80000,
,,,00.000000090800,   3.80000,
,,,00.000000091000,   4.00000,
,,,00.000000091200,   4.00000,
,,,00.000000091400,   4.00000,
,,,00.000000091600,   4.00000,
,,,00.000000091800,   4.00000,
,,,00.000000092000,   4.20000,
,,,00.000000092200,   4.20000,
,,,00.000000092400,   4.20000,
,,,00.000000092600,   4.20000,
,,,00.000000092800,   4.20000,
,,,00.000000093000,   4.20000,
,,,00.000000093200,   4.20000,
,,,00.000000093400,   4.20000,
,,,00.000000093600,   4.00000,
,,,00.000000093800,   4.00000,
,,,00.000000094000,   4.00000,
,,,00.000000094200,   4.00000,
,,,00.000000094400,   4.20000,
,,,00.000000094600,   4.00000,
,,,00.000000094800,   4.00000,
,,,00.000000095000,   4.00000,
,,,00.000000095200,   4.00000,
,,,00.000000095400,   4.20000,
,,,00.000000095600,   4.20000,
,,,00.000000095800,   4.20000,
,,,00.000000096000,   4.00000,
,,,00.000000096200,   4.00000,
,,,00.000000096400,   4.00000,
,,,00.000000096600,   4.00000,
,,,00.000000096800,   4.00000,
,,,00.000000097000,   4.00000,
,,,00.000000097200,   4.00000,
,,,00.000000097400,   4.00000,
,,,00.000000097600,   4.00000,
,,,00.000000097800,   4.00000,
,,,00.000000098000,   4.20000,
,,,00.000000098200,   4.20000,
,,,00.000000098400,   4.20000,
,,,00.000000098600,   4.20000,
,,,00.000000098800,   4.20000,
,,,00.000000099000,   4.20000,
,,,00.000000099200,   4.20000,
,,,00.000000099400,   4.20000,
,,,00.000000099600,   4.20000,
,,,00.000000099800,   4.20000,
,,,00.000000100000,   4.20000,
,,,00.000000100200,   4.20000,
,,,00.000000100400,   4.20000,
,,,00.000000100600,   4.20000,
,,,00.000000100800,   4.20000,
,,,00.000000101000,   4.20000,
,,,00.000000101200,   4.20000,
,,,00.000000101400,   4.20000,
,,,00.000000101600,   4.20000,
,,,00.000000101800,   4.20000,
,,,00.000000102000,   4.20000,
,,,00.000000102200,   4.20000,
,,,00.000000102400,   4.20000,
,,,00.000000102600,   4.20000,
,,,00.000000102800,   4.20000,
,,,00.000000103000,   4.00000,
,,,00.000000103200,   4.00000,
,,,00.000000103400,   4.00000,
,,,00.000000103600,   4.00000,
,,,00.000000103800,   4.00000,
,,,00.000000104000,   4.20000,
,,,00.000000104200,   4.20000,
,,,00.000000104400,   4.20000,
,,,00.000000104600,   4.00000,
,,,00.000000104800,   4.00000,
,,,00.000000105000,   4.00000,
,,,00.000000105200,   4.00000,
,,,00.000000105400,   4.20000,
,,,00.000000105600,   4.20000,
,,,00.000000105800,   4.20000,
,,,00.000000106000,   4.20000,
,,,00.000000106200,   4.20000,
,,,00.000000106400,   4.20000,
,,,00.000000106600,   4.20000,
,,,00.000000106800,   4.20000,
,,,00.000000107000,   4.20000,
,,,00.000000107200,   4.20000,
,,,00.000000107400,   4.20000,
,,,00.000000107600,   4.00000,
,,,00.000000107800,   4.00000,
,,,00.000000108000,   4.00000,
,,,00.000000108200,   4.00000,
,,,00.000000108400,   4.20000,
,,,00.000000108600,   4.20000,
,,,00.000000108800,   4.20000,
,,,00.000000109000,   4.00000,
,,,00.000000109200,   4.00000,
,,,00.000000109400,   4.00000,
,,,00.000000109600,   4.00000,
,,,00.000000109800,   4.00000,
,,,00.000000110000,   4.00000,
,,,00.000000110200,   4.00000,
,,,00.000000110400,   4.00000,
,,,00.000000110600,   4.00000,
,,,00.000000110800,   4.00000,
,,,00.000000111000,   4.00000,
,,,00.000000111200,   4.00000,
,,,00.000000111400,   4.00000,
,,,00.000000111600,   3.80000,
,,,00.000000111800,   3.80000,
,,,00.000000112000,   3.80000,
,,,00.000000112200,   3.60000,
,,,00.000000112400,   3.80000,
,,,00.000000112600,   3.80000,
,,,00.000000112800,   3.80000,
,,,00.000000113000,   4.00000,
,,,00.000000113200,   4.00000,
,,,00.000000113400,   4.00000,
,,,00.000000113600,   3.80000,
,,,00.000000113800,   3.80000,
,,,00.000000114000,   3.80000,
,,,00.000000114200,   3.80000,
,,,00.000000114400,   3.80000,
,,,00.000000114600,   3.80000,
,,,00.000000114800,   3.80000,
,,,00.000000115000,   3.80000,
,,,00.000000115200,   3.60000,
,,,00.000000115400,   3.80000,
,,,00.000000115600,   3.80000,
,,,00.000000115800,   4.00000,
,,,00.000000116000,   4.20000,
,,,00.000000116200,   4.00000,
,,,00.000000116400,   4.00000,
,,,00.000000116600,   3.80000,
,,,00.000000116800,   4.00000,
,,,00.000000117000,   4.00000,
,,,00.000000117200,   4.00000,
,,,00.000000117400,   4.20000,
,,,00.000000117600,   4.20000,
,,,00.000000117800,   4.20000,
,,,00.000000118000,   4.20000,
,,,00.000000118200,   4.20000,
,,,00.000000118400,   4.20000,
,,,00.000000118600,   4.00000,
,,,00.000000118800,   3.80000,
,,,00.000000119000,   3.80000,
,,,00.000000119200,   3.80000,
,,,00.000000119400,   4.00000,
,,,00.000000119600,   3.80000,
,,,00.000000119800,   3.80000,
,,,00.000000120000,   3.60000,
,,,00.000000120200,   3.60000,
,,,00.000000120400,   3.80000,
,,,00.000000120600,   3.80000,
,,,00.000000120800,   4.00000,
,,,00.000000121000,   4.20000,
,,,00.000000121200,   4.20000,
,,,00.000000121400,   4.20000,
,,,00.000000121600,   4.00000,
,,,00.000000121800,   4.00000,
,,,00.000000122000,   4.00000,
,,,00.000000122200,   4.00000,
,,,00.000000122400,   4.00000,
,,,00.000000122600,   4.00000,
,,,00.000000122800,   4.00000,
,,,00.000000123000,   4.00000,
,,,00.000000123200,   4.00000,
,,,00.000000123400,   4.20000,
,,,00.000000123600,   4.20000,
,,,00.000000123800,   4.20000,
,,,00.000000124000,   4.00000,
,,,00.000000124200,   4.00000,
,,,00.000000124400,   4.00000,
,,,00.000000124600,   4.00000,
,,,00.000000124800,   4.00000,
,,,00.000000125000,   4.20000,
,,,00.000000125200,   4.20000,
,,,00.000000125400,   4.20000,
,,,00.000000125600,   4.20000,
,,,00.000000125800,   4.20000,
,,,00.000000126000,   4.20000,
,,,00.000000126200,   4.20000,
,,,00.000000126400,   4.20000,
,,,00.000000126600,   4.20000,
,,,00.000000126800,   4.20000,
,,,00.000000127000,   4.00000,
,,,00.000000127200,   4.00000,
,,,00.000000127400,   4.00000,
,,,00.000000127600,   4.00000,
,,,00.000000127800,   4.00000,
,,,00.000000128000,   4.00000,
,,,00.000000128200,   4.00000,
,,,00.000000128400,   4.00000,
,,,00.000000128600,   4.00000,
,,,00.000000128800,   4.00000,
,,,00.000000129000,   4.00000,
,,,00.000000129200,   4.00000,
,,,00.000000129400,   4.00000,
,,,00.000000129600,   4.00000,
,,,00.000000129800,   4.00000,
,,,00.000000130000,   4.00000,
,,,00.000000130200,   4.00000,
,,,00.000000130400,   4.00000,
,,,00.000000130600,   4.00000,
,,,00.000000130800,   4.00000,
,,,00.000000131000,   4.00000,
,,,00.000000131200,   4.00000,
,,,00.000000131400,   4.00000,
,,,00.000000131600,   4.00000,
,,,00.000000131800,   4.00000,
,,,00.000000132000,   4.20000,
,,,00.000000132200,   4.20000,
,,,00.000000132400,   4.20000,
,,,00.000000132600,   4.20000,
,,,00.000000132800,   4.20000,
,,,00.000000133000,   4.00000,
,,,00.000000133200,   4.00000,
,,,00.000000133400,   4.00000,
,,,00.000000133600,   4.00000,
,,,00.000000133800,   4.00000,
,,,00.000000134000,   4.00000,
,,,00.000000134200,   4.00000,
,,,00.000000134400,   4.00000,
,,,00.000000134600,   4.00000,
,,,00.000000134800,   4.00000,
,,,00.000000135000,   4.20000,
,,,00.000000135200,   4.20000,
,,,00.000000135400,   4.20000,
,,,00.000000135600,   4.20000,
,,,00.000000135800,   4.20000,
,,,00.000000136000,   4.00000,
,,,00.000000136200,   4.00000,
,,,00.000000136400,   4.00000,
,,,00.000000136600,   4.00000,
,,,00.000000136800,   4.00000,
,,,00.000000137000,   4.20000,
,,,00.000000137200,   4.20000,
,,,00.000000137400,   4.20000,
,,,00.000000137600,   4.20000,
,,,00.000000137800,   4.20000,
,,,00.000000138000,   4.20000,
,,,00.000000138200,   4.20000,
,,,00.000000138400,   4.20000,
,,,00.000000138600,   4.20000,
,,,00.000000138800,   4.20000,
,,,00.000000139000,   4.40000,
,,,00.000000139200,   4.40000,
,,,00.000000139400,   4.40000,
,,,00.000000139600,   4.20000,
,,,00.000000139800,   4.00000,
,,,00.000000140000,   4.00000,
,,,00.000000140200,   4.00000,
,,,00.000000140400,   4.00000,
,,,00.000000140600,   4.00000,
,,,00.000000140800,   4.00000,
,,,00.000000141000,   4.00000,
,,,00.000000141200,   4.00000,
,,,00.000000141400,   4.20000,
,,,00.000000141600,   4.00000,
,,,00.000000141800,   4.00000,
,,,00.000000142000,   4.00000,
,,,00.000000142200,   4.00000,
,,,00.000000142400,   4.20000,
,,,00.000000142600,   4.00000,
,,,00.000000142800,   4.00000,
,,,00.000000143000,   4.00000,
,,,00.000000143200,   4.00000,
,,,00.000000143400,   4.20000,
,,,00.000000143600,   4.00000,
,,,00.000000143800,   4.00000,
,,,00.000000144000,   4.00000,
,,,00.000000144200,   3.80000,
,,,00.000000144400,   4.00000,
,,,00.000000144600,   4.00000,
,,,00.000000144800,   4.00000,
,,,00.000000145000,   4.20000,
,,,00.000000145200,   4.20000,
,,,00.000000145400,   4.20000,
,,,00.000000145600,   4.00000,
,,,00.000000145800,   4.00000,
,,,00.000000146000,   4.00000,
,,,00.000000146200,   4.00000,
,,,00.000000146400,   4.00000,
,,,00.000000146600,   4.00000,
,,,00.000000146800,   4.00000,
,,,00.000000147000,   4.00000,
,,,00.000000147200,   4.00000,
,,,00.000000147400,   4.00000,
,,,00.000000147600,   4.00000,
,,,00.000000147800,   4.00000,
,,,00.000000148000,   4.00000,
,,,00.000000148200,   4.00000,
,,,00.000000148400,   4.00000,
,,,00.000000148600,   3.80000,
,,,00.000000148800,   4.00000,
,,,00.000000149000,   4.00000,
,,,00.000000149200,   4.00000,
,,,00.000000149400,   4.20000,
,,,00.000000149600,   4.00000,
,,,00.000000149800,   4.00000,
,,,00.000000150000,   4.00000,
,,,00.000000150200,   4.00000,
,,,00.000000150400,   4.20000,
,,,00.000000150600,   4.00000,
,,,00.000000150800,   4.00000,
,,,00.000000151000,   4.00000,
,,,00.000000151200,   3.80000,
,,,00.000000151400,   4.00000,
,,,00.000000151600,   4.00000,
,,,00.000000151800,   4.00000,
,,,00.000000152000,   4.20000,
,,,00.000000152200,   4.20000,
,,,00.000000152400,   4.20000,
,,,00.000000152600,   4.00000,
,,,00.000000152800,   4.00000,
,,,00.000000153000,   4.00000,
,,,00.000000153200,   3.80000,
,,,00.000000153400,   4.00000,
,,,00.000000153600,   4.00000,
,,,00.000000153800,   4.00000,
,,,00.000000154000,   4.00000,
,,,00.000000154200,   4.00000,
,,,00.000000154400,   4.00000,
,,,00.000000154600,   4.00000,
,,,00.000000154800,   4.00000,
,,,00.000000155000,   4.00000,
,,,00.000000155200,   4.00000,
,,,00.000000155400,   4.00000,
,,,00.000000155600,   3.80000,
,,,00.000000155800,   3.80000,
,,,00.000000156000,   4.00000,
,,,00.000000156200,   4.20000,
,,,00.000000156400,   4.40000,
,,,00.000000156600,   4.20000,
,,,00.000000156800,   4.20000,
,,,00.000000157000,   4.00000,
,,,00.000000157200,   4.00000,
,,,00.000000157400,   4.00000,
,,,00.000000157600,   4.00000,
,,,00.000000157800,   4.00000,
,,,00.000000158000,   4.20000,
,,,00.000000158200,   4.20000,
,,,00.000000158400,   4.20000,
,,,00.000000158600,   4.20000,
,,,00.000000158800,   4.20000,
,,,00.000000159000,   4.00000,
,,,00.000000159200,   4.00000,
,,,00.000000159400,   4.00000,
,,,00.000000159600,   3.80000,
,,,00.000000159800,   4.00000,
,,,00.000000160000,   4.00000,
,,,00.000000160200,   4.00000,
,,,00.000000160400,   4.20000,
,,,00.000000160600,   4.20000,
,,,00.000000160800,   4.20000,
,,,00.000000161000,   4.00000,
,,,00.000000161200,   4.00000,
,,,00.000000161400,   4.00000,
,,,00.000000161600,   3.80000,
,,,00.000000161800,   4.00000,
,,,00.000000162000,   4.00000,
,,,00.000000162200,   4.00000,
,,,00.000000162400,   4.20000,
,,,00.000000162600,   4.20000,
,,,00.000000162800,   4.20000,
,,,00.000000163000,   4.00000,
,,,00.000000163200,   4.00000,
,,,00.000000163400,   4.00000,
,,,00.000000163600,   4.00000,
,,,00.000000163800,   4.00000,
,,,00.000000164000,   4.20000,
,,,00.000000164200,   4.20000,
,,,00.000000164400,   4.20000,
,,,00.000000164600,   4.00000,
,,,00.000000164800,   4.00000,
,,,00.000000165000,   4.00000,
,,,00.000000165200,   4.00000,
,,,00.000000165400,   4.20000,
,,,00.000000165600,   4.20000,
,,,00.000000165800,   4.20000,
,,,00.000000166000,   4.00000,
,,,00.000000166200,   4.00000,
,,,00.000000166400,   4.00000,
,,,00.000000166600,   4.00000,
,,,00.000000166800,   4.00000,
,,,00.000000167000,   4.00000,
,,,00.000000167200,   4.00000,
,,,00.000000167400,   4.00000,
,,,00.000000167600,   4.00000,
,,,00.000000167800,   4.00000,
,,,00.000000168000,   4.20000,
,,,00.000000168200,   4.20000,
,,,00.000000168400,   4.20000,
,,,00.000000168600,   4.00000,
,,,00.000000168800,   4.00000,
,,,00.000000169000,   4.00000,
,,,00.000000169200,   3.80000,
,,,00.000000169400,   4.00000,
,,,00.000000169600,   4.00000,
,,,00.000000169800,   4.00000,
,,,00.000000170000,   4.20000,
,,,00.000000170200,   4.20000,
,,,00.000000170400,   4.20000,
,,,00.000000170600,   4.00000,
,,,00.000000170800,   4.00000,
,,,00.000000171000,   4.00000,
,,,00.000000171200,   3.80000,
,,,00.000000171400,   4.00000,
,,,00.000000171600,   4.00000,
,,,00.000000171800,   4.00000,
,,,00.000000172000,   4.20000,
,,,00.000000172200,   4.20000,
,,,00.000000172400,   4.20000,
,,,00.000000172600,   4.20000,
,,,00.000000172800,   4.20000,
,,,00.000000173000,   4.20000,
,,,00.000000173200,   4.20000,
,,,00.000000173400,   4.20000,
,,,00.000000173600,   4.00000,
,,,00.000000173800,   4.00000,
,,,00.000000174000,   4.00000,
,,,00.000000174200,   4.00000,
,,,00.000000174400,   4.20000,
,,,00.000000174600,   4.20000,
,,,00.000000174800,   4.20000,
,,,00.000000175000,   4.20000,
,,,00.000000175200,   4.20000,
,,,00.000000175400,   4.40000,
,,,00.000000175600,   4.20000,
,,,00.000000175800,   4.20000,
,,,00.000000176000,   4.00000,
,,,00.000000176200,   4.00000,
,,,00.000000176400,   4.00000,
,,,00.000000176600,   4.00000,
,,,00.000000176800,   4.00000,
,,,00.000000177000,   4.00000,
,,,00.000000177200,   4.00000,
,,,00.000000177400,   4.00000,
,,,00.000000177600,   3.80000,
,,,00.000000177800,   3.80000,
,,,00.000000178000,   3.80000,
,,,00.000000178200,   3.80000,
,,,00.000000178400,   4.00000,
,,,00.000000178600,   4.00000,
,,,00.000000178800,   4.00000,
,,,00.000000179000,   4.00000,
,,,00.000000179200,   4.00000,
,,,00.000000179400,   4.20000,
,,,00.000000179600,   4.00000,
,,,00.000000179800,   4.00000,
,,,00.000000180000,   4.00000,
,,,00.000000180200,   4.00000,
,,,00.000000180400,   4.20000,
,,,00.000000180600,   4.00000,
,,,00.000000180800,   4.00000,
,,,00.000000181000,   4.00000,
,,,00.000000181200,   3.80000,
,,,00.000000181400,   4.00000,
,,,00.000000181600,   4.00000,
,,,00.000000181800,   4.00000,
,,,00.000000182000,   4.00000,
,,,00.000000182200,   4.00000,
,,,00.000000182400,   4.00000,
,,,00.000000182600,   3.80000,
,,,00.000000182800,   4.00000,
,,,00.000000183000,   4.00000,
,,,00.000000183200,   4.00000,
,,,00.000000183400,   4.20000,
,,,00.000000183600,   4.00000,
,,,00.000000183800,   4.00000,
,,,00.000000184000,   4.00000,
,,,00.000000184200,   4.00000,
,,,00.000000184400,   4.20000,
,,,00.000000184600,   4.20000,
,,,00.000000184800,   4.20000,
,,,00.000000185000,   4.20000,
,,,00.000000185200,   4.20000,
,,,00.000000185400,   4.40000,
,,,00.000000185600,   4.40000,
,,,00.000000185800,   4.40000,
,,,00.000000186000,   4.20000,
,,,00.000000186200,   4.00000,
,,,00.000000186400,   4.00000,
,,,00.000000186600,   3.80000,
,,,00.000000186800,   3.80000,
,,,00.000000187000,   4.00000,
,,,00.000000187200,   4.00000,
,,,00.000000187400,   4.20000,
,,,00.000000187600,   4.20000,
,,,00.000000187800,   4.40000,
,,,00.000000188000,   4.20000,
,,,00.000000188200,   4.20000,
,,,00.000000188400,   4.20000,
,,,00.000000188600,   4.20000,
,,,00.000000188800,   4.20000,
,,,00.000000189000,   4.00000,
,,,00.000000189200,   4.00000,
,,,00.000000189400,   4.00000,
,,,00.000000189600,   4.00000,
,,,00.000000189800,   4.00000,
,,,00.000000190000,   4.20000,
,,,00.000000190200,   4.20000,
,,,00.000000190400,   4.20000,
,,,00.000000190600,   4.20000,
,,,00.000000190800,   4.20000,
,,,00.000000191000,   4.20000,
,,,00.000000191200,   4.20000,
,,,00.000000191400,   4.20000,
,,,00.000000191600,   4.20000,
,,,00.000000191800,   4.20000,
,,,00.000000192000,   4.20000,
,,,00.000000192200,   4.20000,
,,,00.000000192400,   4.20000,
,,,00.000000192600,   4.20000,
,,,00.000000192800,   4.20000,
,,,00.000000193000,   4.20000,
,,,00.000000193200,   4.20000,
,,,00.000000193400,   4.20000,
,,,00.000000193600,   4.00000,
,,,00.000000193800,   4.00000,
,,,00.000000194000,   4.00000,
,,,00.000000194200,   3.80000,
,,,00.000000194400,   4.00000,
,,,00.000000194600,   4.00000,
,,,00.000000194800,   4.00000,
,,,00.000000195000,   4.00000,
,,,00.000000195200,   4.00000,
,,,00.000000195400,   4.00000,
,,,00.000000195600,   4.00000,
,,,00.000000195800,   4.00000,
,,,00.000000196000,   4.00000,
,,,00.000000196200,   4.00000,
,,,00.000000196400,   4.00000,
,,,00.000000196600,   4.00000,
,,,00.000000196800,   4.00000,
,,,00.000000197000,   4.20000,
,,,00.000000197200,   4.20000,
,,,00.000000197400,   4.20000,
,,,00.000000197600,   4.00000,
,,,00.000000197800,   4.00000,
,,,00.000000198000,   4.00000,
,,,00.000000198200,   4.00000,
,,,00.000000198400,   4.00000,
,,,00.000000198600,   4.00000,
,,,00.000000198800,   4.00000,
,,,00.000000199000,   4.00000,
,,,00.000000199200,   4.00000,
,,,00.000000199400,   4.20000,
,,,00.000000199600,   4.00000,
,,,00.000000199800,   4.00000,
,,,00.000000200000,   4.00000,
,,,00.000000200200,   3.80000,
,,,00.000000200400,   4.00000,
,,,00.000000200600,   4.00000,
,,,00.000000200800,   4.00000,
,,,00.000000201000,   4.20000,
,,,00.000000201200,   4.20000,
,,,00.000000201400,   4.20000,
,,,00.000000201600,   4.00000,
,,,00.000000201800,   4.00000,
,,,00.000000202000,   4.00000,
,,,00.000000202200,   3.80000,
,,,00.000000202400,   4.00000,
,,,00.000000202600,   4.00000,
,,,00.000000202800,   4.00000,
,,,00.000000203000,   4.20000,
,,,00.000000203200,   4.20000,
,,,00.000000203400,   4.40000,
,,,00.000000203600,   4.20000,
,,,00.000000203800,   4.20000,
,,,00.000000204000,   4.00000,
,,,00.000000204200,   4.00000,
,,,00.000000204400,   4.00000,
,,,00.000000204600,   3.80000,
,,,00.000000204800,   4.00000,
,,,00.000000205000,   4.00000,
,,,00.000000205200,   4.00000,
,,,00.000000205400,   4.20000,
,,,00.000000205600,   4.20000,
,,,00.000000205800,   4.20000,
,,,00.000000206000,   4.00000,
,,,00.000000206200,   3.80000,
,,,00.000000206400,   3.80000,
,,,00.000000206600,   3.60000,
,,,00.000000206800,   3.60000,
,,,00.000000207000,   3.80000,
,,,00.000000207200,   4.00000,
,,,00.000000207400,   4.20000,
,,,00.000000207600,   4.20000,
,,,00.000000207800,   4.20000,
,,,00.000000208000,   4.20000,
,,,00.000000208200,   4.20000,
,,,00.000000208400,   4.40000,
,,,00.000000208600,   4.20000,
,,,00.000000208800,   4.00000,
,,,00.000000209000,   3.80000,
,,,00.000000209200,   3.80000,
,,,00.000000209400,   3.80000,
,,,00.000000209600,   3.80000,
,,,00.000000209800,   4.00000,
,,,00.000000210000,   4.20000,
,,,00.000000210200,   4.20000,
,,,00.000000210400,   4.20000,
,,,00.000000210600,   4.00000,
,,,00.000000210800,   3.80000,
,,,00.000000211000,   3.80000,
,,,00.000000211200,   3.80000,
,,,00.000000211400,   3.80000,
,,,00.000000211600,   3.60000,
,,,00.000000211800,   3.80000,
,,,00.000000212000,   3.80000,
,,,00.000000212200,   4.00000,
,,,00.000000212400,   4.20000,
,,,00.000000212600,   4.00000,
,,,00.000000212800,   4.00000,
,,,00.000000213000,   4.00000,
,,,00.000000213200,   3.80000,
,,,00.000000213400,   4.00000,
,,,00.000000213600,   4.00000,
,,,00.000000213800,   4.00000,
,,,00.000000214000,   4.00000,
,,,00.000000214200,   4.00000,
,,,00.000000214400,   4.00000,
,,,00.000000214600,   3.80000,
,,,00.000000214800,   4.00000,
,,,00.000000215000,   4.00000,
,,,00.000000215200,   4.00000,
,,,00.000000215400,   4.20000,
,,,00.000000215600,   4.20000,
,,,00.000000215800,   4.20000,
,,,00.000000216000,   4.00000,
,,,00.000000216200,   4.00000,
,,,00.000000216400,   4.00000,
,,,00.000000216600,   3.80000,
,,,00.000000216800,   4.00000,
,,,00.000000217000,   4.00000,
,,,00.000000217200,   4.00000,
,,,00.000000217400,   4.20000,
,,,00.000000217600,   4.00000,
,,,00.000000217800,   4.00000,
,,,00.000000218000,   4.00000,
,,,00.000000218200,   3.80000,
,,,00.000000218400,   4.00000,
,,,00.000000218600,   4.00000,
,,,00.000000218800,   4.00000,
,,,00.000000219000,   4.00000,
,,,00.000000219200,   4.00000,
,,,00.000000219400,   4.00000,
,,,00.000000219600,   4.00000,
,,,00.000000219800,   4.00000,
,,,00.000000220000,   4.00000,
,,,00.000000220200,   4.00000,
,,,00.000000220400,   4.00000,
,,,00.000000220600,   3.80000,
,,,00.000000220800,   4.00000,
,,,00.000000221000,   4.00000,
,,,00.000000221200,   4.00000,
,,,00.000000221400,   4.20000,
,,,00.000000221600,   4.00000,
,,,00.000000221800,   4.00000,
,,,00.000000222000,   4.00000,
,,,00.000000222200,   3.80000,
,,,00.000000222400,   4.00000,
,,,00.000000222600,   4.00000,
,,,00.000000222800,   4.00000,
,,,00.000000223000,   4.20000,
,,,00.000000223200,   4.20000,
,,,00.000000223400,   4.20000,
,,,00.000000223600,   4.20000,
,,,00.000000223800,   4.20000,
,,,00.000000224000,   4.20000,
,,,00.000000224200,   4.20000,
,,,00.000000224400,   4.20000,
,,,00.000000224600,   4.00000,
,,,00.000000224800,   4.00000,
,,,00.000000225000,   4.00000,
,,,00.000000225200,   3.80000,
,,,00.000000225400,   4.00000,
,,,00.000000225600,   4.00000,
,,,00.000000225800,   4.00000,
,,,00.000000226000,   4.20000,
,,,00.000000226200,   4.20000,
,,,00.000000226400,   4.20000,
,,,00.000000226600,   4.20000,
,,,00.000000226800,   4.20000,
,,,00.000000227000,   4.00000,
,,,00.000000227200,   4.00000,
,,,00.000000227400,   4.00000,
,,,00.000000227600,   4.00000,
,,,00.000000227800,   4.00000,
,,,00.000000228000,   4.00000,
,,,00.000000228200,   4.00000,
,,,00.000000228400,   4.00000,
,,,00.000000228600,   4.00000,
,,,00.000000228800,   4.00000,
,,,00.000000229000,   4.00000,
,,,00.000000229200,   4.00000,
,,,00.000000229400,   4.00000,
,,,00.000000229600,   4.00000,
,,,00.000000229800,   4.00000,
,,,00.000000230000,   4.00000,
,,,00.000000230200,   4.00000,
,,,00.000000230400,   4.00000,
,,,00.000000230600,   4.00000,
,,,00.000000230800,   4.00000,
,,,00.000000231000,   4.20000,
,,,00.000000231200,   4.20000,
,,,00.000000231400,   4.20000,
,,,00.000000231600,   4.20000,
,,,00.000000231800,   4.20000,
,,,00.000000232000,   4.00000,
,,,00.000000232200,   4.00000,
,,,00.000000232400,   4.00000,
,,,00.000000232600,   4.00000,
,,,00.000000232800,   4.00000,
,,,00.000000233000,   4.00000,
,,,00.000000233200,   4.00000,
,,,00.000000233400,   4.00000,
,,,00.000000233600,   4.00000,
,,,00.000000233800,   4.00000,
,,,00.000000234000,   4.20000,
,,,00.000000234200,   4.20000,
,,,00.000000234400,   4.20000,
,,,00.000000234600,   4.20000,
,,,00.000000234800,   4.20000,
,,,00.000000235000,   4.20000,
,,,00.000000235200,   4.20000,
,,,00.000000235400,   4.20000,
,,,00.000000235600,   4.20000,
,,,00.000000235800,   4.20000,
,,,00.000000236000,   4.40000,
,,,00.000000236200,   4.20000,
,,,00.000000236400,   4.20000,
,,,00.000000236600,   4.00000,
,,,00.000000236800,   4.00000,
,,,00.000000237000,   4.00000,
,,,00.000000237200,   4.00000,
,,,00.000000237400,   4.20000,
,,,00.000000237600,   4.20000,
,,,00.000000237800,   4.20000,
,,,00.000000238000,   4.20000,
,,,00.000000238200,   4.20000,
,,,00.000000238400,   4.20000,
,,,00.000000238600,   4.20000,
,,,00.000000238800,   4.20000,
,,,00.000000239000,   4.20000,
,,,00.000000239200,   4.20000,
,,,00.000000239400,   4.40000,
,,,00.000000239600,   4.20000,
,,,00.000000239800,   4.20000,
,,,00.000000240000,   4.20000,
,,,00.000000240200,   4.20000,
,,,00.000000240400,   4.20000,
,,,00.000000240600,   4.20000,
,,,00.000000240800,   4.20000,
,,,00.000000241000,   4.20000,
,,,00.000000241200,   4.20000,
,,,00.000000241400,   4.20000,
,,,00.000000241600,   4.20000,
,,,00.000000241800,   4.20000,
,,,00.000000242000,   4.20000,
,,,00.000000242200,   4.20000,
,,,00.000000242400,   4.20000,
,,,00.000000242600,   4.20000,
,,,00.000000242800,   4.20000,
,,,00.000000243000,   4.20000,
,,,00.000000243200,   4.20000,
,,,00.000000243400,   4.20000,
,,,00.000000243600,   4.20000,
,,,00.000000243800,   4.20000,
,,,00.000000244000,   4.20000,
,,,00.000000244200,   4.20000,
,,,00.000000244400,   4.40000,
,,,00.000000244600,   4.20000,
,,,00.000000244800,   4.20000,
,,,00.000000245000,   4.00000,
,,,00.000000245200,   4.00000,
,,,00.000000245400,   4.00000,
,,,00.000000245600,   4.00000,
,,,00.000000245800,   4.00000,
,,,00.000000246000,   4.00000,
,,,00.000000246200,   4.00000,
,,,00.000000246400,   4.00000,
,,,00.000000246600,   4.00000,
,,,00.000000246800,   4.00000,
,,,00.000000247000,   4.20000,
,,,00.000000247200,   4.20000,
,,,00.000000247400,   4.20000,
,,,00.000000247600,   4.00000,
,,,00.000000247800,   4.00000,
,,,00.000000248000,   4.00000,
,,,00.000000248200,   3.80000,
,,,00.000000248400,   4.00000,
,,,00.000000248600,   4.00000,
,,,00.000000248800,   4.00000,
,,,00.000000249000,   4.00000,
,,,00.000000249200,   4.00000,
,,,00.000000249400,   4.00000,
,,,00.000000249600,   4.00000,
,,,00.000000249800,   4.00000,
,,,00.000000250000,   4.00000,
,,,00.000000250200,   4.00000,
,,,00.000000250400,   4.00000,
,,,00.000000250600,   4.00000,
,,,00.000000250800,   4.00000,
,,,00.000000251000,   4.20000,
,,,00.000000251200,   4.20000,
,,,00.000000251400,   4.20000,
,,,00.000000251600,   4.00000,
,,,00.000000251800,   4.00000,
,,,00.000000252000,   4.00000,
,,,00.000000252200,   4.00000,
,,,00.000000252400,   4.20000,
,,,00.000000252600,   4.20000,
,,,00.000000252800,   4.20000,
,,,00.000000253000,   4.00000,
,,,00.000000253200,   4.00000,
,,,00.000000253400,   4.00000,
,,,00.000000253600,   4.00000,
,,,00.000000253800,   4.00000,
,,,00.000000254000,   4.00000,
,,,00.000000254200,   4.00000,
,,,00.000000254400,   4.00000,
,,,00.000000254600,   4.00000,
,,,00.000000254800,   4.00000,
,,,00.000000255000,   4.20000,
,,,00.000000255200,   4.20000,
,,,00.000000255400,   4.20000,
,,,00.000000255600,   4.20000,
,,,00.000000255800,   4.20000,
,,,00.000000256000,   4.00000,
,,,00.000000256200,   4.00000,
,,,00.000000256400,   4.00000,
,,,00.000000256600,   3.80000,
,,,00.000000256800,   4.00000,
,,,00.000000257000,   4.00000,
,,,00.000000257200,   4.00000,
,,,00.000000257400,   4.20000,
,,,00.000000257600,   4.20000,
,,,00.000000257800,   4.20000,
,,,00.000000258000,   4.00000,
,,,00.000000258200,   4.00000,
,,,00.000000258400,   4.00000,
,,,00.000000258600,   3.80000,
,,,00.000000258800,   4.00000,
,,,00.000000259000,   4.00000,
,,,00.000000259200,   4.00000,
,,,00.000000259400,   4.20000,
,,,00.000000259600,   4.20000,
,,,00.000000259800,   4.20000,
,,,00.000000260000,   4.00000,
,,,00.000000260200,   3.80000,
,,,00.000000260400,   3.80000,
,,,00.000000260600,   3.60000,
,,,00.000000260800,   3.60000,
,,,00.000000261000,   3.80000,
,,,00.000000261200,   4.00000,
,,,00.000000261400,   4.20000,
,,,00.000000261600,   4.20000,
,,,00.000000261800,   4.20000,
,,,00.000000262000,   4.00000,
,,,00.000000262200,   4.00000,
,,,00.000000262400,   4.00000,
,,,00.000000262600,   4.00000,
,,,00.000000262800,   4.00000,
,,,00.000000263000,   4.00000,
,,,00.000000263200,   4.00000,
,,,00.000000263400,   4.00000,
,,,00.000000263600,   4.00000,
,,,00.000000263800,   4.00000,
,,,00.000000264000,   4.20000,
,,,00.000000264200,   4.20000,
,,,00.000000264400,   4.20000,
,,,00.000000264600,   4.20000,
,,,00.000000264800,   4.20000,
,,,00.000000265000,   4.40000,
,,,00.000000265200,   4.40000,
,,,00.000000265400,   4.40000,
,,,00.000000265600,   4.20000,
,,,00.000000265800,   4.20000,
,,,00.000000266000,   4.20000,
,,,00.000000266200,   4.00000,
,,,00.000000266400,   4.20000,
,,,00.000000266600,   4.20000,
,,,00.000000266800,   4.20000,
,,,00.000000267000,   4.40000,
,,,00.000000267200,   4.20000,
,,,00.000000267400,   4.20000,
,,,00.000000267600,   4.00000,
,,,00.000000267800,   4.00000,
,,,00.000000268000,   4.00000,
,,,00.000000268200,   4.00000,
,,,00.000000268400,   4.20000,
,,,00.000000268600,   4.00000,
,,,00.000000268800,   4.00000,
,,,00.000000269000,   4.00000,
,,,00.000000269200,   4.00000,
,,,00.000000269400,   4.20000,
,,,00.000000269600,   4.20000,
,,,00.000000269800,   4.20000,
,,,00.000000270000,   4.20000,
,,,00.000000270200,   4.20000,
,,,00.000000270400,   4.20000,
,,,00.000000270600,   4.20000,
,,,00.000000270800,   4.20000,
,,,00.000000271000,   4.20000,
,,,00.000000271200,   4.20000,
,,,00.000000271400,   4.20000,
,,,00.000000271600,   4.00000,
,,,00.000000271800,   4.00000,
,,,00.000000272000,   4.00000,
,,,00.000000272200,   3.80000,
,,,00.000000272400,   4.00000,
,,,00.000000272600,   4.00000,
,,,00.000000272800,   4.00000,
,,,00.000000273000,   4.20000,
,,,00.000000273200,   4.20000,
,,,00.000000273400,   4.20000,
,,,00.000000273600,   4.20000,
,,,00.000000273800,   4.20000,
,,,00.000000274000,   4.20000,
,,,00.000000274200,   4.20000,
,,,00.000000274400,   4.20000,
,,,00.000000274600,   4.20000,
,,,00.000000274800,   4.20000,
,,,00.000000275000,   4.00000,
,,,00.000000275200,   4.00000,
,,,00.000000275400,   4.00000,
,,,00.000000275600,   4.00000,
,,,00.000000275800,   4.00000,
,,,00.000000276000,   4.00000,
,,,00.000000276200,   4.00000,
,,,00.000000276400,   4.00000,
,,,00.000000276600,   4.00000,
,,,00.000000276800,   4.00000,
,,,00.000000277000,   4.00000,
,,,00.000000277200,   4.00000,
,,,00.000000277400,   4.20000,
,,,00.000000277600,   4.00000,
,,,00.000000277800,   4.00000,
,,,00.000000278000,   4.00000,
,,,00.000000278200,   4.00000,
,,,00.000000278400,   4.00000,
,,,00.000000278600,   4.00000,
,,,00.000000278800,   4.00000,
,,,00.000000279000,   4.00000,
,,,00.000000279200,   4.00000,
,,,00.000000279400,   4.20000,
,,,00.000000279600,   4.00000,
,,,00.000000279800,   4.00000,
,,,00.000000280000,   4.00000,
,,,00.000000280200,   4.00000,
,,,00.000000280400,   4.00000,
,,,00.000000280600,   4.00000,
,,,00.000000280800,   4.00000,
,,,00.000000281000,   4.00000,
,,,00.000000281200,   4.00000,
,,,00.000000281400,   4.20000,
,,,00.000000281600,   4.20000,
,,,00.000000281800,   4.20000,
,,,00.000000282000,   4.20000,
,,,00.000000282200,   4.20000,
,,,00.000000282400,   4.20000,
,,,00.000000282600,   4.20000,
,,,00.000000282800,   4.20000,
,,,00.000000283000,   4.20000,
,,,00.000000283200,   4.20000,
,,,00.000000283400,   4.20000,
,,,00.000000283600,   4.00000,
,,,00.000000283800,   4.00000,
,,,00.000000284000,   4.00000,
,,,00.000000284200,   4.00000,
,,,00.000000284400,   4.20000,
,,,00.000000284600,   4.00000,
,,,00.000000284800,   4.00000,
,,,00.000000285000,   4.00000,
,,,00.000000285200,   4.00000,
,,,00.000000285400,   4.20000,
,,,00.000000285600,   4.00000,
,,,00.000000285800,   4.00000,
,,,00.000000286000,   4.00000,
,,,00.000000286200,   3.80000,
,,,00.000000286400,   4.00000,
,,,00.000000286600,   4.00000,
,,,00.000000286800,   4.00000,
,,,00.000000287000,   4.00000,
,,,00.000000287200,   4.00000,
,,,00.000000287400,   4.00000,
,,,00.000000287600,   4.00000,
,,,00.000000287800,   4.00000,
,,,00.000000288000,   4.00000,
,,,00.000000288200,   4.00000,
,,,00.000000288400,   4.00000,
,,,00.000000288600,   4.00000,
,,,00.000000288800,   4.00000,
,,,00.000000289000,   4.00000,
,,,00.000000289200,   4.00000,
,,,00.000000289400,   4.00000,
,,,00.000000289600,   4.00000,
,,,00.000000289800,   4.00000,
,,,00.000000290000,   4.20000,
,,,00.000000290200,   4.20000,
,,,00.000000290400,   4.20000,
,,,00.000000290600,   4.20000,
,,,00.000000290800,   4.20000,
,,,00.000000291000,   4.20000,
,,,00.000000291200,   4.20000,
,,,00.000000291400,   4.20000,
,,,00.000000291600,   4.00000,
,,,00.000000291800,   4.00000,
,,,00.000000292000,   4.00000,
,,,00.000000292200,   4.00000,
,,,00.000000292400,   4.00000,
,,,00.000000292600,   4.00000,
,,,00.000000292800,   4.00000,
,,,00.000000293000,   4.00000,
,,,00.000000293200,   4.00000,
,,,00.000000293400,   4.00000,
,,,00.000000293600,   4.00000,
,,,00.000000293800,   4.00000,
,,,00.000000294000,   4.00000,
,,,00.000000294200,   4.00000,
,,,00.000000294400,   4.00000,
,,,00.000000294600,   3.80000,
,,,00.000000294800,   4.00000,
,,,00.000000295000,   4.00000,
,,,00.000000295200,   4.00000,
,,,00.000000295400,   4.20000,
,,,00.000000295600,   4.00000,
,,,00.000000295800,   4.00000,
,,,00.000000296000,   4.00000,
,,,00.000000296200,   4.00000,
,,,00.000000296400,   4.20000,
,,,00.000000296600,   4.20000,
,,,00.000000296800,   4.20000,
,,,00.000000297000,   4.20000,
,,,00.000000297200,   4.20000,
,,,00.000000297400,   4.40000,
,,,00.000000297600,   4.20000,
,,,00.000000297800,   4.20000,
,,,00.000000298000,   4.20000,
,,,00.000000298200,   4.20000,
,,,00.000000298400,   4.20000,
,,,00.000000298600,   4.20000,
,,,00.000000298800,   4.20000,
,,,00.000000299000,   4.20000,
,,,00.000000299200,   4.20000,
,,,00.000000299400,   4.20000,
,,,00.000000299600,   4.00000,
,,,00.000000299800,   4.00000,
,,,00.000000300000,   4.00000,
,,,00.000000300200,   3.80000,
,,,00.000000300400,   4.00000,
,,,00.000000300600,   4.00000,
,,,00.000000300800,   4.00000,
,,,00.000000301000,   4.00000,
,,,00.000000301200,   4.00000,
,,,00.000000301400,   4.00000,
,,,00.000000301600,   4.00000,
,,,00.000000301800,   4.00000,
,,,00.000000302000,   4.20000,
,,,00.000000302200,   4.20000,
,,,00.000000302400,   4.40000,
,,,00.000000302600,   4.20000,
,,,00.000000302800,   4.00000,
,,,00.000000303000,   4.00000,
,,,00.000000303200,   4.00000,
,,,00.000000303400,   4.20000,
,,,00.000000303600,   4.20000,
,,,00.000000303800,   4.20000,
,,,00.000000304000,   4.20000,
,,,00.000000304200,   4.20000,
,,,00.000000304400,   4.20000,
,,,00.000000304600,   4.20000,
,,,00.000000304800,   4.20000,
,,,00.000000305000,   4.00000,
,,,00.000000305200,   4.00000,
,,,00.000000305400,   4.00000,
,,,00.000000305600,   3.80000,
,,,00.000000305800,   4.00000,
,,,00.000000306000,   4.00000,
,,,00.000000306200,   4.00000,
,,,00.000000306400,   4.20000,
,,,00.000000306600,   4.00000,
,,,00.000000306800,   4.00000,
,,,00.000000307000,   4.00000,
,,,00.000000307200,   4.00000,
,,,00.000000307400,   4.00000,
,,,00.000000307600,   4.00000,
,,,00.000000307800,   4.00000,
,,,00.000000308000,   4.00000,
,,,00.000000308200,   4.00000,
,,,00.000000308400,   4.00000,
,,,00.000000308600,   4.00000,
,,,00.000000308800,   4.00000,
,,,00.000000309000,   4.20000,
,,,00.000000309200,   4.20000,
,,,00.000000309400,   4.20000,
,,,00.000000309600,   4.00000,
,,,00.000000309800,   4.00000,
,,,00.000000310000,   4.00000,
,,,00.000000310200,   3.80000,
,,,00.000000310400,   4.00000,
,,,00.000000310600,   4.00000,
,,,00.000000310800,   4.00000,
,,,00.000000311000,   4.20000,
,,,00.000000311200,   4.00000,
,,,00.000000311400,   4.00000,
,,,00.000000311600,   3.80000,
,,,00.000000311800,   3.80000,
,,,00.000000312000,   3.80000,
,,,00.000000312200,   3.60000,
,,,00.000000312400,   3.80000,
,,,00.000000312600,   3.80000,
,,,00.000000312800,   3.80000,
,,,00.000000313000,   4.00000,
,,,00.000000313200,   4.00000,
,,,00.000000313400,   4.00000,
,,,00.000000313600,   4.00000,
,,,00.000000313800,   4.00000,
,,,00.000000314000,   4.20000,
,,,00.000000314200,   4.20000,
,,,00.000000314400,   4.40000,
,,,00.000000314600,   4.20000,
,,,00.000000314800,   4.20000,
,,,00.000000315000,   4.20000,
,,,00.000000315200,   4.00000,
,,,00.000000315400,   4.20000,
,,,00.000000315600,   4.20000,
,,,00.000000315800,   4.20000,
,,,00.000000316000,   4.40000,
,,,00.000000316200,   4.40000,
,,,00.000000316400,   4.40000,
,,,00.000000316600,   4.20000,
,,,00.000000316800,   4.20000,
,,,00.000000317000,   4.20000,
,,,00.000000317200,   4.20000,
,,,00.000000317400,   4.20000,
,,,00.000000317600,   4.20000,
,,,00.000000317800,   4.20000,
,,,00.000000318000,   4.00000,
,,,00.000000318200,   4.00000,
,,,00.000000318400,   4.00000,
,,,00.000000318600,   4.00000,
,,,00.000000318800,   4.00000,
,,,00.000000319000,   4.00000,
,,,00.000000319200,   4.00000,
,,,00.000000319400,   4.00000,
,,,00.000000319600,   3.80000,
,,,00.000000319800,   4.00000,
,,,00.000000320000,   4.00000,
,,,00.000000320200,   4.00000,
,,,00.000000320400,   4.20000,
,,,00.000000320600,   4.20000,
,,,00.000000320800,   4.20000,
,,,00.000000321000,   4.00000,
,,,00.000000321200,   4.00000,
,,,00.000000321400,   4.00000,
,,,00.000000321600,   4.00000,
,,,00.000000321800,   4.00000,
,,,00.000000322000,   4.20000,
,,,00.000000322200,   4.20000,
,,,00.000000322400,   4.40000,
,,,00.000000322600,   4.40000,
,,,00.000000322800,   4.40000,
,,,00.000000323000,   4.40000,
,,,00.000000323200,   4.40000,
,,,00.000000323400,   4.40000,
,,,00.000000323600,   4.20000,
,,,00.000000323800,   4.20000,
,,,00.000000324000,   4.20000,
,,,00.000000324200,   4.20000,
,,,00.000000324400,   4.20000,
,,,00.000000324600,   4.00000,
,,,00.000000324800,   4.00000,
,,,00.000000325000,   4.00000,
,,,00.000000325200,   3.80000,
,,,00.000000325400,   4.00000,
,,,00.000000325600,   4.00000,
,,,00.000000325800,   4.00000,
,,,00.000000326000,   4.20000,
,,,00.000000326200,   4.20000,
,,,00.000000326400,   4.20000,
,,,00.000000326600,   4.20000,
,,,00.000000326800,   4.20000,
,,,00.000000327000,   4.00000,
,,,00.000000327200,   4.00000,
,,,00.000000327400,   4.00000,
,,,00.000000327600,   4.00000,
,,,00.000000327800,   4.00000,
,,,00.000000328000,   4.00000,
,,,00.000000328200,   4.00000,
,,,00.000000328400,   4.00000,
,,,00.000000328600,   4.00000,
,,,00.000000328800,   4.00000,
,,,00.000000329000,   4.00000,
,,,00.000000329200,   4.00000,
,,,00.000000329400,   4.00000,
,,,00.000000329600,   4.00000,
,,,00.000000329800,   4.00000,
,,,00.000000330000,   4.20000,
,,,00.000000330200,   4.20000,
,,,00.000000330400,   4.20000,
,,,00.000000330600,   4.20000,
,,,00.000000330800,   4.20000,
,,,00.000000331000,   4.00000,
,,,00.000000331200,   4.00000,
,,,00.000000331400,   4.00000,
,,,00.000000331600,   4.00000,
,,,00.000000331800,   4.00000,
,,,00.000000332000,   4.20000,
,,,00.000000332200,   4.20000,
,,,00.000000332400,   4.20000,
,,,00.000000332600,   4.00000,
,,,00.000000332800,   4.00000,
,,,00.000000333000,   4.00000,
,,,00.000000333200,   4.00000,
,,,00.000000333400,   4.20000,
,,,00.000000333600,   4.20000,
,,,00.000000333800,   4.20000,
,,,00.000000334000,   4.00000,
,,,00.000000334200,   4.00000,
,,,00.000000334400,   4.00000,
,,,00.000000334600,   4.00000,
,,,00.000000334800,   4.00000,
,,,00.000000335000,   4.20000,
,,,00.000000335200,   4.20000,
,,,00.000000335400,   4.20000,
,,,00.000000335600,   4.20000,
,,,00.000000335800,   4.20000,
,,,00.000000336000,   4.20000,
,,,00.000000336200,   4.20000,
,,,00.000000336400,   4.20000,
,,,00.000000336600,   4.20000,
,,,00.000000336800,   4.20000,
,,,00.000000337000,   4.20000,
,,,00.000000337200,   4.20000,
,,,00.000000337400,   4.20000,
,,,00.000000337600,   4.20000,
,,,00.000000337800,   4.20000,
,,,00.000000338000,   4.20000,
,,,00.000000338200,   4.20000,
,,,00.000000338400,   4.40000,
,,,00.000000338600,   4.20000,
,,,00.000000338800,   4.20000,
,,,00.000000339000,   4.20000,
,,,00.000000339200,   4.20000,
,,,00.000000339400,   4.20000,
,,,00.000000339600,   4.20000,
,,,00.000000339800,   4.20000,
,,,00.000000340000,   4.20000,
,,,00.000000340200,   4.20000,
,,,00.000000340400,   4.40000,
,,,00.000000340600,   4.20000,
,,,00.000000340800,   4.20000,
,,,00.000000341000,   4.00000,
,,,00.000000341200,   4.00000,
,,,00.000000341400,   4.00000,
,,,00.000000341600,   4.00000,
,,,00.000000341800,   4.00000,
,,,00.000000342000,   4.00000,
,,,00.000000342200,   4.00000,
,,,00.000000342400,   4.00000,
,,,00.000000342600,   4.00000,
,,,00.000000342800,   4.00000,
,,,00.000000343000,   4.00000,
,,,00.000000343200,   4.00000,
,,,00.000000343400,   4.00000,
,,,00.000000343600,   4.00000,
,,,00.000000343800,   4.00000,
,,,00.000000344000,   4.00000,
,,,00.000000344200,   3.80000,
,,,00.000000344400,   4.00000,
,,,00.000000344600,   4.00000,
,,,00.000000344800,   4.20000,
,,,00.000000345000,   4.40000,
,,,00.000000345200,   4.20000,
,,,00.000000345400,   4.20000,
,,,00.000000345600,   4.20000,
,,,00.000000345800,   4.20000,
,,,00.000000346000,   4.20000,
,,,00.000000346200,   4.20000,
,,,00.000000346400,   4.20000,
,,,00.000000346600,   4.20000,
,,,00.000000346800,   4.20000,
,,,00.000000347000,   4.20000,
,,,00.000000347200,   4.20000,
,,,00.000000347400,   4.20000,
,,,00.000000347600,   4.20000,
,,,00.000000347800,   4.20000,
,,,00.000000348000,   4.20000,
,,,00.000000348200,   4.20000,
,,,00.000000348400,   4.20000,
,,,00.000000348600,   4.00000,
,,,00.000000348800,   4.00000,
,,,00.000000349000,   4.00000,
,,,00.000000349200,   4.00000,
,,,00.000000349400,   4.20000,
,,,00.000000349600,   4.20000,
,,,00.000000349800,   4.20000,
,,,00.000000350000,   4.00000,
,,,00.000000350200,   4.00000,
,,,00.000000350400,   4.00000,
,,,00.000000350600,   4.00000,
,,,00.000000350800,   4.00000,
,,,00.000000351000,   4.20000,
,,,00.000000351200,   4.20000,
,,,00.000000351400,   4.20000,
,,,00.000000351600,   4.00000,
,,,00.000000351800,   4.00000,
,,,00.000000352000,   4.00000,
,,,00.000000352200,   3.80000,
,,,00.000000352400,   4.00000,
,,,00.000000352600,   4.00000,
,,,00.000000352800,   4.00000,
,,,00.000000353000,   4.00000,
,,,00.000000353200,   4.00000,
,,,00.000000353400,   4.00000,
,,,00.000000353600,   4.00000,
,,,00.000000353800,   4.00000,
,,,00.000000354000,   4.00000,
,,,00.000000354200,   4.00000,
,,,00.000000354400,   4.00000,
,,,00.000000354600,   4.00000,
,,,00.000000354800,   4.00000,
,,,00.000000355000,   4.00000,
,,,00.000000355200,   4.00000,
,,,00.000000355400,   4.00000,
,,,00.000000355600,   3.80000,
,,,00.000000355800,   4.00000,
,,,00.000000356000,   4.00000,
,,,00.000000356200,   4.00000,
,,,00.000000356400,   4.20000,
,,,00.000000356600,   4.20000,
,,,00.000000356800,   4.20000,
,,,00.000000357000,   4.00000,
,,,00.000000357200,   4.00000,
,,,00.000000357400,   4.00000,
,,,00.000000357600,   4.00000,
,,,00.000000357800,   4.00000,
,,,00.000000358000,   4.00000,
,,,00.000000358200,   4.00000,
,,,00.000000358400,   4.00000,
,,,00.000000358600,   4.00000,
,,,00.000000358800,   4.00000,
,,,00.000000359000,   4.00000,
,,,00.000000359200,   4.00000,
,,,00.000000359400,   4.00000,
,,,00.000000359600,   3.80000,
,,,00.000000359800,   4.00000,
,,,00.000000360000,   4.00000,
,,,00.000000360200,   4.00000,
,,,00.000000360400,   4.20000,
,,,00.000000360600,   4.00000,
,,,00.000000360800,   4.00000,
,,,00.000000361000,   3.80000,
,,,00.000000361200,   3.80000,
,,,00.000000361400,   3.80000,
,,,00.000000361600,   3.60000,
,,,00.000000361800,   3.80000,
,,,00.000000362000,   3.80000,
,,,00.000000362200,   3.80000,
,,,00.000000362400,   4.00000,
,,,00.000000362600,   4.00000,
,,,00.000000362800,   4.00000,
,,,00.000000363000,   3.80000,
,,,00.000000363200,   3.80000,
,,,00.000000363400,   3.80000,
,,,00.000000363600,   3.80000,
,,,00.000000363800,   4.00000,
,,,00.000000364000,   4.20000,
,,,00.000000364200,   4.40000,
,,,00.000000364400,   4.40000,
,,,00.000000364600,   4.20000,
,,,00.000000364800,   4.00000,
,,,00.000000365000,   3.80000,
,,,00.000000365200,   3.80000,
,,,00.000000365400,   4.00000,
,,,00.000000365600,   4.00000,
,,,00.000000365800,   4.00000,
,,,00.000000366000,   4.00000,
,,,00.000000366200,   4.00000,
,,,00.000000366400,   4.00000,
,,,00.000000366600,   3.80000,
,,,00.000000366800,   4.00000,
,,,00.000000367000,   4.00000,
,,,00.000000367200,   4.00000,
,,,00.000000367400,   4.20000,
,,,00.000000367600,   4.20000,
,,,00.000000367800,   4.20000,
,,,00.000000368000,   4.20000,
,,,00.000000368200,   4.20000,
,,,00.000000368400,   4.40000,
,,,00.000000368600,   4.20000,
,,,00.000000368800,   4.20000,
,,,00.000000369000,   4.00000,
,,,00.000000369200,   4.00000,
,,,00.000000369400,   4.00000,
,,,00.000000369600,   4.00000,
,,,00.000000369800,   4.00000,
,,,00.000000370000,   4.00000,
,,,00.000000370200,   4.00000,
,,,00.000000370400,   4.00000,
,,,00.000000370600,   4.00000,
,,,00.000000370800,   4.00000,
,,,00.000000371000,   4.20000,
,,,00.000000371200,   4.20000,
,,,00.000000371400,   4.40000,
,,,00.000000371600,   4.20000,
,,,00.000000371800,   4.20000,
,,,00.000000372000,   4.20000,
,,,00.000000372200,   4.20000,
,,,00.000000372400,   4.20000,
,,,00.000000372600,   4.20000,
,,,00.000000372800,   4.20000,
,,,00.000000373000,   4.00000,
,,,00.000000373200,   4.00000,
,,,00.000000373400,   4.00000,
,,,00.000000373600,   4.00000,
,,,00.000000373800,   4.00000,
,,,00.000000374000,   4.00000,
,,,00.000000374200,   4.00000,
,,,00.000000374400,   4.00000,
,,,00.000000374600,   4.00000,
,,,00.000000374800,   4.00000,
,,,00.000000375000,   4.00000,
,,,00.000000375200,   4.00000,
,,,00.000000375400,   4.00000,
,,,00.000000375600,   4.00000,
,,,00.000000375800,   4.00000,
,,,00.000000376000,   4.00000,
,,,00.000000376200,   4.00000,
,,,00.000000376400,   4.20000,
,,,00.000000376600,   4.20000,
,,,00.000000376800,   4.20000,
,,,00.000000377000,   4.00000,
,,,00.000000377200,   4.00000,
,,,00.000000377400,   4.00000,
,,,00.000000377600,   4.00000,
,,,00.000000377800,   4.00000,
,,,00.000000378000,   4.00000,
,,,00.000000378200,   4.00000,
,,,00.000000378400,   4.00000,
,,,00.000000378600,   4.00000,
,,,00.000000378800,   4.00000,
,,,00.000000379000,   4.20000,
,,,00.000000379200,   4.20000,
,,,00.000000379400,   4.20000,
,,,00.000000379600,   4.00000,
,,,00.000000379800,   4.00000,
,,,00.000000380000,   4.00000,
,,,00.000000380200,   4.00000,
,,,00.000000380400,   4.20000,
,,,00.000000380600,   4.00000,
,,,00.000000380800,   4.00000,
,,,00.000000381000,   4.00000,
,,,00.000000381200,   4.00000,
,,,00.000000381400,   4.20000,
,,,00.000000381600,   4.20000,
,,,00.000000381800,   4.20000,
,,,00.000000382000,   4.20000,
,,,00.000000382200,   4.20000,
,,,00.000000382400,   4.20000,
,,,00.000000382600,   4.20000,
,,,00.000000382800,   4.20000,
,,,00.000000383000,   4.20000,
,,,00.000000383200,   4.20000,
,,,00.000000383400,   4.20000,
,,,00.000000383600,   4.20000,
,,,00.000000383800,   4.20000,
,,,00.000000384000,   4.20000,
,,,00.000000384200,   4.20000,
,,,00.000000384400,   4.40000,
,,,00.000000384600,   4.20000,
,,,00.000000384800,   4.20000,
,,,00.000000385000,   4.20000,
,,,00.000000385200,   4.00000,
,,,00.000000385400,   4.20000,
,,,00.000000385600,   4.20000,
,,,00.000000385800,   4.20000,
,,,00.000000386000,   4.40000,
,,,00.000000386200,   4.40000,
,,,00.000000386400,   4.40000,
,,,00.000000386600,   4.20000,
,,,00.000000386800,   4.20000,
,,,00.000000387000,   4.20000,
,,,00.000000387200,   4.20000,
,,,00.000000387400,   4.20000,
,,,00.000000387600,   4.20000,
,,,00.000000387800,   4.20000,
,,,00.000000388000,   4.20000,
,,,00.000000388200,   4.20000,
,,,00.000000388400,   4.20000,
,,,00.000000388600,   4.20000,
,,,00.000000388800,   4.20000,
,,,00.000000389000,   4.20000,
,,,00.000000389200,   4.20000,
,,,00.000000389400,   4.20000,
,,,00.000000389600,   4.20000,
,,,00.000000389800,   4.20000,
,,,00.000000390000,   4.00000,
,,,00.000000390200,   4.00000,
,,,00.000000390400,   4.00000,
,,,00.000000390600,   4.00000,
,,,00.000000390800,   4.00000,
,,,00.000000391000,   4.00000,
,,,00.000000391200,   4.00000,
,,,00.000000391400,   4.00000,
,,,00.000000391600,   4.00000,
,,,00.000000391800,   4.00000,
,,,00.000000392000,   4.00000,
,,,00.000000392200,   4.00000,
,,,00.000000392400,   4.20000,
,,,00.000000392600,   4.20000,
,,,00.000000392800,   4.20000,
,,,00.000000393000,   4.20000,
,,,00.000000393200,   4.20000,
,,,00.000000393400,   4.20000,
,,,00.000000393600,   4.00000,
,,,00.000000393800,   4.00000,
,,,00.000000394000,   4.00000,
,,,00.000000394200,   3.80000,
,,,00.000000394400,   4.00000,
,,,00.000000394600,   4.00000,
,,,00.000000394800,   4.00000,
,,,00.000000395000,   4.20000,
,,,00.000000395200,   4.20000,
,,,00.000000395400,   4.20000,
,,,00.000000395600,   4.00000,
,,,00.000000395800,   4.00000,
,,,00.000000396000,   4.00000,
,,,00.000000396200,   3.80000,
,,,00.000000396400,   4.00000,
,,,00.000000396600,   4.00000,
,,,00.000000396800,   4.00000,
,,,00.000000397000,   4.20000,
,,,00.000000397200,   4.20000,
,,,00.000000397400,   4.20000,
,,,00.000000397600,   4.20000,
,,,00.000000397800,   4.20000,
,,,00.000000398000,   4.20000,
,,,00.000000398200,   4.20000,
,,,00.000000398400,   4.20000,
,,,00.000000398600,   4.20000,
,,,00.000000398800,   4.20000,
,,,00.000000399000,   4.20000,
,,,00.000000399200,   4.20000,
,,,00.000000399400,   4.20000,
,,,00.000000399600,   4.00000,
,,,00.000000399800,   4.00000,
,,,00.000000400000,   3.80000,
,,,00.000000400200,   3.80000,
,,,00.000000400400,   3.80000,
,,,00.000000400600,   3.80000,
,,,00.000000400800,   3.80000,
,,,00.000000401000,   4.00000,
,,,00.000000401200,   4.00000,
,,,00.000000401400,   4.20000,
,,,00.000000401600,   4.20000,
,,,00.000000401800,   4.20000,
,,,00.000000402000,   4.20000,
,,,00.000000402200,   4.20000,
,,,00.000000402400,   4.20000,
,,,00.000000402600,   4.00000,
,,,00.000000402800,   4.00000,
,,,00.000000403000,   4.00000,
,,,00.000000403200,   3.80000,
,,,00.000000403400,   4.00000,
,,,00.000000403600,   4.00000,
,,,00.000000403800,   4.00000,
,,,00.000000404000,   4.00000,
,,,00.000000404200,   4.00000,
,,,00.000000404400,   4.00000,
,,,00.000000404600,   4.00000,
,,,00.000000404800,   4.00000,
,,,00.000000405000,   4.00000,
,,,00.000000405200,   4.00000,
,,,00.000000405400,   4.00000,
,,,00.000000405600,   4.00000,
,,,00.000000405800,   4.00000,
,,,00.000000406000,   4.20000,
,,,00.000000406200,   4.20000,
,,,00.000000406400,   4.40000,
,,,00.000000406600,   4.20000,
,,,00.000000406800,   4.20000,
,,,00.000000407000,   4.00000,
,,,00.000000407200,   4.00000,
,,,00.000000407400,   4.00000,
,,,00.000000407600,   4.00000,
,,,00.000000407800,   4.00000,
,,,00.000000408000,   4.20000,
,,,00.000000408200,   4.20000,
,,,00.000000408400,   4.20000,
,,,00.000000408600,   4.00000,
,,,00.000000408800,   4.00000,
,,,00.000000409000,   4.00000,
,,,00.000000409200,   3.80000,
,,,00.000000409400,   4.00000,
,,,00.000000409600,   4.00000,
,,,00.000000409800,   4.00000,
,,,00.000000410000,   4.20000,
,,,00.000000410200,   4.20000,
,,,00.000000410400,   4.20000,
,,,00.000000410600,   4.00000,
,,,00.000000410800,   4.00000,
,,,00.000000411000,   4.00000,
,,,00.000000411200,   3.80000,
,,,00.000000411400,   4.00000,
,,,00.000000411600,   4.00000,
,,,00.000000411800,   4.00000,
,,,00.000000412000,   4.20000,
,,,00.000000412200,   4.20000,
,,,00.000000412400,   4.20000,
,,,00.000000412600,   4.20000,
,,,00.000000412800,   4.20000,
,,,00.000000413000,   4.20000,
,,,00.000000413200,   4.20000,
,,,00.000000413400,   4.20000,
,,,00.000000413600,   4.20000,
,,,00.000000413800,   4.20000,
,,,00.000000414000,   4.00000,
,,,00.000000414200,   4.00000,
,,,00.000000414400,   4.00000,
,,,00.000000414600,   4.00000,
,,,00.000000414800,   4.00000,
,,,00.000000415000,   4.00000,
,,,00.000000415200,   4.00000,
,,,00.000000415400,   4.00000,
,,,00.000000415600,   3.80000,
,,,00.000000415800,   4.00000,
,,,00.000000416000,   4.00000,
,,,00.000000416200,   4.00000,
,,,00.000000416400,   4.20000,
,,,00.000000416600,   4.00000,
,,,00.000000416800,   4.00000,
,,,00.000000417000,   4.00000,
,,,00.000000417200,   3.80000,
,,,00.000000417400,   4.00000,
,,,00.000000417600,   4.00000,
,,,00.000000417800,   4.00000,
,,,00.000000418000,   4.20000,
,,,00.000000418200,   4.20000,
,,,00.000000418400,   4.20000,
,,,00.000000418600,   4.00000,
,,,00.000000418800,   4.00000,
,,,00.000000419000,   4.00000,
,,,00.000000419200,   4.00000,
,,,00.000000419400,   4.20000,
,,,00.000000419600,   4.20000,
,,,00.000000419800,   4.20000,
,,,00.000000420000,   4.00000,
,,,00.000000420200,   4.00000,
,,,00.000000420400,   4.00000,
,,,00.000000420600,   4.00000,
,,,00.000000420800,   4.00000,
,,,00.000000421000,   4.20000,
,,,00.000000421200,   4.20000,
,,,00.000000421400,   4.20000,
,,,00.000000421600,   4.20000,
,,,00.000000421800,   4.20000,
,,,00.000000422000,   4.20000,
,,,00.000000422200,   4.20000,
,,,00.000000422400,   4.40000,
,,,00.000000422600,   4.20000,
,,,00.000000422800,   4.20000,
,,,00.000000423000,   4.20000,
,,,00.000000423200,   4.20000,
,,,00.000000423400,   4.20000,
,,,00.000000423600,   4.20000,
,,,00.000000423800,   4.20000,
,,,00.000000424000,   4.20000,
,,,00.000000424200,   4.20000,
,,,00.000000424400,   4.20000,
,,,00.000000424600,   4.20000,
,,,00.000000424800,   4.20000,
,,,00.000000425000,   4.20000,
,,,00.000000425200,   4.20000,
,,,00.000000425400,   4.20000,
,,,00.000000425600,   4.20000,
,,,00.000000425800,   4.20000,
,,,00.000000426000,   4.00000,
,,,00.000000426200,   4.00000,
,,,00.000000426400,   4.00000,
,,,00.000000426600,   4.00000,
,,,00.000000426800,   4.00000,
,,,00.000000427000,   4.00000,
,,,00.000000427200,   4.00000,
,,,00.000000427400,   4.00000,
,,,00.000000427600,   4.00000,
,,,00.000000427800,   4.00000,
,,,00.000000428000,   4.00000,
,,,00.000000428200,   4.00000,
,,,00.000000428400,   4.00000,
,,,00.000000428600,   4.00000,
,,,00.000000428800,   4.00000,
,,,00.000000429000,   4.00000,
,,,00.000000429200,   4.00000,
,,,00.000000429400,   4.00000,
,,,00.000000429600,   4.00000,
,,,00.000000429800,   4.00000,
,,,00.000000430000,   4.00000,
,,,00.000000430200,   4.00000,
,,,00.000000430400,   4.00000,
,,,00.000000430600,   4.00000,
,,,00.000000430800,   4.00000,
,,,00.000000431000,   4.20000,
,,,00.000000431200,   4.20000,
,,,00.000000431400,   4.20000,
,,,00.000000431600,   4.20000,
,,,00.000000431800,   4.20000,
,,,00.000000432000,   4.20000,
,,,00.000000432200,   4.20000,
,,,00.000000432400,   4.20000,
,,,00.000000432600,   4.20000,
,,,00.000000432800,   4.20000,
,,,00.000000433000,   4.40000,
,,,00.000000433200,   4.40000,
,,,00.000000433400,   4.40000,
,,,00.000000433600,   4.40000,
,,,00.000000433800,   4.40000,
,,,00.000000434000,   4.60000,
,,,00.000000434200,   4.40000,
,,,00.000000434400,   4.40000,
,,,00.000000434600,   4.20000,
,,,00.000000434800,   4.20000,
,,,00.000000435000,   4.20000,
,,,00.000000435200,   4.20000,
,,,00.000000435400,   4.20000,
,,,00.000000435600,   4.20000,
,,,00.000000435800,   4.20000,
,,,00.000000436000,   4.20000,
,,,00.000000436200,   4.20000,
,,,00.000000436400,   4.40000,
,,,00.000000436600,   4.20000,
,,,00.000000436800,   4.20000,
,,,00.000000437000,   4.20000,
,,,00.000000437200,   4.20000,
,,,00.000000437400,   4.20000,
,,,00.000000437600,   4.20000,
,,,00.000000437800,   4.20000,
,,,00.000000438000,   4.20000,
,,,00.000000438200,   4.20000,
,,,00.000000438400,   4.20000,
,,,00.000000438600,   4.20000,
,,,00.000000438800,   4.20000,
,,,00.000000439000,   4.00000,
,,,00.000000439200,   4.00000,
,,,00.000000439400,   4.00000,
,,,00.000000439600,   4.00000,
,,,00.000000439800,   4.00000,
,,,00.000000440000,   4.20000,
,,,00.000000440200,   4.20000,
,,,00.000000440400,   4.20000,
,,,00.000000440600,   4.20000,
,,,00.000000440800,   4.20000,
,,,00.000000441000,   4.20000,
,,,00.000000441200,   4.20000,
,,,00.000000441400,   4.20000,
,,,00.000000441600,   4.00000,
,,,00.000000441800,   4.00000,
,,,00.000000442000,   4.00000,
,,,00.000000442200,   4.00000,
,,,00.000000442400,   4.20000,
,,,00.000000442600,   4.00000,
,,,00.000000442800,   4.00000,
,,,00.000000443000,   4.00000,
,,,00.000000443200,   4.00000,
,,,00.000000443400,   4.00000,
,,,00.000000443600,   4.00000,
,,,00.000000443800,   4.00000,
,,,00.000000444000,   4.00000,
,,,00.000000444200,   4.00000,
,,,00.000000444400,   4.00000,
,,,00.000000444600,   4.00000,
,,,00.000000444800,   4.00000,
,,,00.000000445000,   4.20000,
,,,00.000000445200,   4.20000,
,,,00.000000445400,   4.20000,
,,,00.000000445600,   4.00000,
,,,00.000000445800,   4.00000,
,,,00.000000446000,   4.00000,
,,,00.000000446200,   4.00000,
,,,00.000000446400,   4.20000,
,,,00.000000446600,   4.00000,
,,,00.000000446800,   4.00000,
,,,00.000000447000,   4.00000,
,,,00.000000447200,   3.80000,
,,,00.000000447400,   4.00000,
,,,00.000000447600,   4.00000,
,,,00.000000447800,   4.00000,
,,,00.000000448000,   4.20000,
,,,00.000000448200,   4.20000,
,,,00.000000448400,   4.20000,
,,,00.000000448600,   4.00000,
,,,00.000000448800,   4.00000,
,,,00.000000449000,   4.00000,
,,,00.000000449200,   4.00000,
,,,00.000000449400,   4.20000,
,,,00.000000449600,   4.00000,
,,,00.000000449800,   4.00000,
