EESchema Schematic File Version 4
EELAYER 30 0
EELAYER END
$Descr User 6000 5500
encoding utf-8
Sheet 1 1
Title "Time of Flight test bench"
Date "2020-03-24"
Rev "1"
Comp ""
Comment1 ""
Comment2 ""
Comment3 ""
Comment4 ""
$EndDescr
$Comp
L pic16f1789:PIC16F1789 U2
U 1 1 5EBAB1BB
P 2700 1450
F 0 "U2" H 3450 1865 50  0000 C CNN
F 1 "PIC16F1789" H 3450 1774 50  0000 C CNN
F 2 "" H 2700 1450 50  0001 C CNN
F 3 "" H 2700 1450 50  0001 C CNN
	1    2700 1450
	1    0    0    -1  
$EndComp
$Comp
L Connector_Generic:Conn_01x06 J1
U 1 1 5EBACCEF
P 1000 1500
F 0 "J1" H 918 1917 50  0000 C CNN
F 1 "Conn_01x06" H 918 1826 50  0000 C CNN
F 2 "" H 1000 1500 50  0001 C CNN
F 3 "~" H 1000 1500 50  0001 C CNN
	1    1000 1500
	-1   0    0    -1  
$EndComp
Wire Wire Line
	1200 1300 1550 1300
Wire Wire Line
	1200 1600 1550 1600
Wire Wire Line
	1200 1700 1550 1700
NoConn ~ 1200 1800
Text Label 2100 1550 0    50   ~ 0
Vpp
Wire Wire Line
	2100 1550 2400 1550
Text Label 1550 1300 2    50   ~ 0
Vpp
Text Label 1550 1700 2    50   ~ 0
ICSPCLK
Text Label 1550 1600 2    50   ~ 0
ICSPDAT
$Comp
L power:GND #PWR04
U 1 1 5EBB075A
P 1700 1500
F 0 "#PWR04" H 1700 1250 50  0001 C CNN
F 1 "GND" H 1705 1327 50  0000 C CNN
F 2 "" H 1700 1500 50  0001 C CNN
F 3 "" H 1700 1500 50  0001 C CNN
	1    1700 1500
	1    0    0    -1  
$EndComp
Wire Wire Line
	1200 1500 1700 1500
Wire Wire Line
	1200 1400 1700 1400
$Comp
L power:+3.3V #PWR03
U 1 1 5EBB0E80
P 1700 1400
F 0 "#PWR03" H 1700 1250 50  0001 C CNN
F 1 "+3.3V" H 1715 1573 50  0000 C CNN
F 2 "" H 1700 1400 50  0001 C CNN
F 3 "" H 1700 1400 50  0001 C CNN
	1    1700 1400
	1    0    0    -1  
$EndComp
$Comp
L power:+3.3V #PWR05
U 1 1 5EBB1069
P 2300 1300
F 0 "#PWR05" H 2300 1150 50  0001 C CNN
F 1 "+3.3V" H 2315 1473 50  0000 C CNN
F 2 "" H 2300 1300 50  0001 C CNN
F 3 "" H 2300 1300 50  0001 C CNN
	1    2300 1300
	1    0    0    -1  
$EndComp
Wire Wire Line
	2300 1300 2300 1400
Wire Wire Line
	2300 1400 2400 1400
Wire Wire Line
	2300 1300 2400 1300
Connection ~ 2300 1300
$Comp
L power:GND #PWR06
U 1 1 5EBB17D5
P 4700 1300
F 0 "#PWR06" H 4700 1050 50  0001 C CNN
F 1 "GND" H 4705 1127 50  0000 C CNN
F 2 "" H 4700 1300 50  0001 C CNN
F 3 "" H 4700 1300 50  0001 C CNN
	1    4700 1300
	1    0    0    -1  
$EndComp
Wire Wire Line
	4500 1300 4600 1300
Wire Wire Line
	4600 1300 4600 1400
Wire Wire Line
	4600 1400 4500 1400
Wire Wire Line
	4600 1300 4700 1300
Connection ~ 4600 1300
Text Label 4750 1850 2    50   ~ 0
SCL
Text Label 4750 1950 2    50   ~ 0
SDA
Wire Wire Line
	4750 1950 4500 1950
Wire Wire Line
	4500 1850 4750 1850
Text Label 950  2500 0    50   ~ 0
SCL
Text Label 950  2600 0    50   ~ 0
SDA
Wire Wire Line
	950  2600 1100 2600
Wire Wire Line
	1100 2500 950  2500
NoConn ~ 1100 2700
$Comp
L power:+3.3V #PWR01
U 1 1 5EBB4044
P 850 2400
F 0 "#PWR01" H 850 2250 50  0001 C CNN
F 1 "+3.3V" H 865 2573 50  0000 C CNN
F 2 "" H 850 2400 50  0001 C CNN
F 3 "" H 850 2400 50  0001 C CNN
	1    850  2400
	1    0    0    -1  
$EndComp
Wire Wire Line
	850  2400 1100 2400
Wire Wire Line
	1100 2800 850  2800
$Comp
L power:GND #PWR02
U 1 1 5EBB544C
P 850 2800
F 0 "#PWR02" H 850 2550 50  0001 C CNN
F 1 "GND" H 855 2627 50  0000 C CNN
F 2 "" H 850 2800 50  0001 C CNN
F 3 "" H 850 2800 50  0001 C CNN
	1    850  2800
	1    0    0    -1  
$EndComp
$Comp
L component_hawkseye:hawkseye U1
U 1 1 5EBB69DE
P 1650 2600
F 0 "U1" H 1800 2250 50  0000 L CNN
F 1 "hawkseye" H 1700 2900 50  0000 L CNN
F 2 "" H 1400 2950 50  0001 C CNN
F 3 "" H 1400 2950 50  0001 C CNN
	1    1650 2600
	1    0    0    -1  
$EndComp
Wire Wire Line
	2400 3250 2050 3250
Wire Wire Line
	2400 3150 2050 3150
Text Label 2050 3150 0    50   ~ 0
ICSPCLK
Text Label 2050 3250 0    50   ~ 0
ICSPDAT
Wire Wire Line
	4500 2050 4750 2050
$Comp
L Device:LED D1
U 1 1 5EBAB813
P 4900 2050
F 0 "D1" H 4893 2266 50  0000 C CNN
F 1 "LED" H 4893 2175 50  0000 C CNN
F 2 "" H 4900 2050 50  0001 C CNN
F 3 "~" H 4900 2050 50  0001 C CNN
	1    4900 2050
	-1   0    0    1   
$EndComp
$Comp
L Device:R R1
U 1 1 5EBBA4A9
P 5100 2250
F 0 "R1" H 5170 2296 50  0000 L CNN
F 1 "220R" H 5170 2205 50  0000 L CNN
F 2 "" V 5030 2250 50  0001 C CNN
F 3 "~" H 5100 2250 50  0001 C CNN
	1    5100 2250
	1    0    0    -1  
$EndComp
NoConn ~ 2400 1700
NoConn ~ 2400 1800
NoConn ~ 2400 1900
NoConn ~ 2400 2000
NoConn ~ 2400 2100
NoConn ~ 2400 2200
NoConn ~ 2400 2300
NoConn ~ 2400 2400
NoConn ~ 2400 2550
NoConn ~ 2400 2650
NoConn ~ 2400 2750
NoConn ~ 2400 2850
NoConn ~ 2400 2950
NoConn ~ 2400 3050
NoConn ~ 4500 1550
NoConn ~ 4500 1650
NoConn ~ 4500 1750
NoConn ~ 4500 2150
NoConn ~ 4500 2250
NoConn ~ 4500 2400
NoConn ~ 4500 2500
NoConn ~ 4500 2600
NoConn ~ 4500 2700
NoConn ~ 4500 2800
NoConn ~ 4500 2900
NoConn ~ 4500 3000
NoConn ~ 4500 3100
NoConn ~ 4500 3250
NoConn ~ 4500 3350
NoConn ~ 4500 3450
$Comp
L power:GND #PWR07
U 1 1 5EBCC218
P 5100 2400
F 0 "#PWR07" H 5100 2150 50  0001 C CNN
F 1 "GND" H 5105 2227 50  0000 C CNN
F 2 "" H 5100 2400 50  0001 C CNN
F 3 "" H 5100 2400 50  0001 C CNN
	1    5100 2400
	1    0    0    -1  
$EndComp
Wire Wire Line
	5050 2050 5100 2050
Wire Wire Line
	5100 2050 5100 2100
$EndSCHEMATC
