EESchema Schematic File Version 4
EELAYER 30 0
EELAYER END
$Descr A4 11693 8268
encoding utf-8
Sheet 1 1
Title "Frustrating Box"
Date "2020-05-14"
Rev "1.1"
Comp "Uliège"
Comment1 ""
Comment2 ""
Comment3 ""
Comment4 ""
$EndDescr
$Comp
L Device:L L1
U 1 1 5DD5A201
P 5050 1550
F 0 "L1" V 5240 1550 50  0000 C CNN
F 1 "45.4 µH" V 5149 1550 50  0000 C CNN
F 2 "" H 5050 1550 50  0001 C CNN
F 3 "~" H 5050 1550 50  0001 C CNN
	1    5050 1550
	0    -1   -1   0   
$EndComp
Wire Wire Line
	5300 1550 5300 1600
$Comp
L Device:Q_NMOS_GDS Q1
U 1 1 5DD5A663
P 5200 1800
F 0 "Q1" H 5050 1900 50  0000 L CNN
F 1 "CSD18533KCS" H 5350 1900 50  0000 L CNN
F 2 "" H 5400 1900 50  0001 C CNN
F 3 "~" H 5200 1800 50  0001 C CNN
	1    5200 1800
	1    0    0    -1  
$EndComp
Wire Wire Line
	5200 1550 5300 1550
Connection ~ 5300 1550
Wire Wire Line
	5300 1550 5400 1550
$Comp
L power:+6V #PWR0102
U 1 1 5DD5A886
P 6350 1550
F 0 "#PWR0102" H 6350 1400 50  0001 C CNN
F 1 "+6V" H 6365 1723 50  0000 C CNN
F 2 "" H 6350 1550 50  0001 C CNN
F 3 "" H 6350 1550 50  0001 C CNN
	1    6350 1550
	1    0    0    -1  
$EndComp
$Comp
L Motor:Motor_DC M1
U 1 1 5DD5C374
P 1450 3700
F 0 "M1" H 1550 3800 50  0000 L CNN
F 1 "Motor_DC" H 1550 3500 50  0000 L CNN
F 2 "" H 1450 3610 50  0001 C CNN
F 3 "~" H 1450 3610 50  0001 C CNN
	1    1450 3700
	-1   0    0    -1  
$EndComp
$Comp
L Device:R_POT RV1
U 1 1 5DD5CB26
P 1450 5150
F 0 "RV1" H 1380 5104 50  0000 R CNN
F 1 "R_POT" H 1380 5195 50  0000 R CNN
F 2 "" H 1450 5150 50  0001 C CNN
F 3 "~" H 1450 5150 50  0001 C CNN
	1    1450 5150
	1    0    0    1   
$EndComp
Text Label 2100 5150 2    50   ~ 0
Angle_sense
Wire Wire Line
	2100 5150 1600 5150
Text Label 9200 1850 0    50   ~ 0
SDA
Text Label 9200 1750 0    50   ~ 0
SCL
Wire Wire Line
	9200 1750 9400 1750
Wire Wire Line
	9200 1850 9400 1850
$Comp
L Regulator_Linear:LF33_TO220 U3
U 1 1 5DD5E702
P 7600 1500
F 0 "U3" H 7750 1250 50  0000 C CNN
F 1 "LF33_TO220" H 7650 1650 50  0000 C CNN
F 2 "Package_TO_SOT_THT:TO-220-3_Vertical" H 7600 1725 50  0001 C CIN
F 3 "http://www.st.com/content/ccc/resource/technical/document/datasheet/c4/0e/7e/2a/be/bc/4c/bd/CD00000546.pdf/files/CD00000546.pdf/jcr:content/translations/en.CD00000546.pdf" H 7600 1450 50  0001 C CNN
	1    7600 1500
	1    0    0    -1  
$EndComp
$Comp
L power:+3.3V #PWR0103
U 1 1 5DD604A5
P 5350 1200
F 0 "#PWR0103" H 5350 1050 50  0001 C CNN
F 1 "+3.3V" H 5365 1373 50  0000 C CNN
F 2 "" H 5350 1200 50  0001 C CNN
F 3 "" H 5350 1200 50  0001 C CNN
	1    5350 1200
	1    0    0    -1  
$EndComp
Text Notes 5400 3000 3    50   ~ 0
These capacitors must be located as\nclose as possible to the VDD/VSS pair.
Text Label 6150 3750 0    50   ~ 0
Angle_sense
Text Label 2950 1800 0    50   ~ 0
Duty_Cycle
Wire Wire Line
	5300 2050 5300 2000
$Comp
L power:GND #PWR0109
U 1 1 5DD5A6EA
P 5300 2050
F 0 "#PWR0109" H 5300 1800 50  0001 C CNN
F 1 "GND" H 5305 1877 50  0000 C CNN
F 2 "" H 5300 2050 50  0001 C CNN
F 3 "" H 5300 2050 50  0001 C CNN
	1    5300 2050
	1    0    0    -1  
$EndComp
$Comp
L power:GND #PWR0111
U 1 1 5DD5D182
P 1450 5300
F 0 "#PWR0111" H 1450 5050 50  0001 C CNN
F 1 "GND" H 1350 5200 50  0000 C CNN
F 2 "" H 1450 5300 50  0001 C CNN
F 3 "" H 1450 5300 50  0001 C CNN
	1    1450 5300
	-1   0    0    -1  
$EndComp
$Comp
L power:GND #PWR0112
U 1 1 5DD5CD63
P 9400 2050
F 0 "#PWR0112" H 9400 1800 50  0001 C CNN
F 1 "GND" H 9405 1877 50  0000 C CNN
F 2 "" H 9400 2050 50  0001 C CNN
F 3 "" H 9400 2050 50  0001 C CNN
	1    9400 2050
	1    0    0    -1  
$EndComp
$Comp
L power:+3.3V #PWR0113
U 1 1 5DD6AE6C
P 9400 1650
F 0 "#PWR0113" H 9400 1500 50  0001 C CNN
F 1 "+3.3V" H 9415 1823 50  0000 C CNN
F 2 "" H 9400 1650 50  0001 C CNN
F 3 "" H 9400 1650 50  0001 C CNN
	1    9400 1650
	1    0    0    -1  
$EndComp
$Comp
L power:+3.3V #PWR0115
U 1 1 5DD6FD2E
P 1450 5000
F 0 "#PWR0115" H 1450 4850 50  0001 C CNN
F 1 "+3.3V" H 1300 5100 50  0000 C CNN
F 2 "" H 1450 5000 50  0001 C CNN
F 3 "" H 1450 5000 50  0001 C CNN
	1    1450 5000
	-1   0    0    -1  
$EndComp
Wire Wire Line
	5100 1200 5350 1200
$Comp
L power:+6V #PWR0116
U 1 1 5DD71308
P 7300 1500
F 0 "#PWR0116" H 7300 1350 50  0001 C CNN
F 1 "+6V" H 7315 1673 50  0000 C CNN
F 2 "" H 7300 1500 50  0001 C CNN
F 3 "" H 7300 1500 50  0001 C CNN
	1    7300 1500
	1    0    0    -1  
$EndComp
Text Label 8200 1500 2    50   ~ 0
LDO_out
Wire Wire Line
	8200 1500 7900 1500
$Comp
L power:GND #PWR0117
U 1 1 5DD73574
P 7600 1800
F 0 "#PWR0117" H 7600 1550 50  0001 C CNN
F 1 "GND" H 7605 1627 50  0000 C CNN
F 2 "" H 7600 1800 50  0001 C CNN
F 3 "" H 7600 1800 50  0001 C CNN
	1    7600 1800
	1    0    0    -1  
$EndComp
Wire Wire Line
	4650 1200 4800 1200
Text Label 5950 1200 2    50   ~ 0
LDO_out
Text Label 6300 3500 0    50   ~ 0
Vpp
Text Label 6150 5100 0    50   ~ 0
ICSPCLK
Text Label 6150 5200 0    50   ~ 0
ICSPDAT
Wire Wire Line
	6150 5200 6650 5200
Wire Wire Line
	6150 5100 6650 5100
Wire Wire Line
	6300 3500 6650 3500
Wire Wire Line
	6150 3750 6650 3750
Text Notes 2950 950  0    50   ~ 0
DC-DC Boost Converter
Text Notes 7250 1250 0    50   ~ 0
3.3V LDO Regulator
Wire Notes Line
	10450 2550 9150 2550
Text Notes 9200 1250 0    50   ~ 0
Time Of Flight Distance Sensor
Wire Notes Line
	10050 2750 10050 5950
Wire Notes Line
	5150 5950 5150 2750
Text Notes 5200 2850 0    50   ~ 0
PIC Controller
$Comp
L Device:C C2
U 1 1 5DDC0034
P 6000 1850
F 0 "C2" H 6115 1896 50  0000 L CNN
F 1 "112.5µF" H 5650 1750 50  0000 L CNN
F 2 "" H 6038 1700 50  0001 C CNN
F 3 "~" H 6000 1850 50  0001 C CNN
	1    6000 1850
	1    0    0    -1  
$EndComp
Wire Wire Line
	5700 1550 6000 1550
Wire Wire Line
	6000 1700 6000 1550
Connection ~ 6000 1550
Wire Wire Line
	6000 1550 6350 1550
$Comp
L power:GND #PWR0118
U 1 1 5DDC522B
P 6000 2050
F 0 "#PWR0118" H 6000 1800 50  0001 C CNN
F 1 "GND" H 6005 1877 50  0000 C CNN
F 2 "" H 6000 2050 50  0001 C CNN
F 3 "" H 6000 2050 50  0001 C CNN
	1    6000 2050
	1    0    0    -1  
$EndComp
Wire Wire Line
	6000 2050 6000 2000
Text Notes 950  2750 0    50   ~ 0
Motor and Angular Position Sensor
Wire Wire Line
	5950 1200 5350 1200
Connection ~ 5350 1200
$Comp
L Connector:Conn_01x06_Male J1
U 1 1 5DDE3D36
P 1150 1850
F 0 "J1" H 1256 2228 50  0000 C CNN
F 1 "Conn_01x06_Male" H 1256 2137 50  0000 C CNN
F 2 "" H 1150 1850 50  0001 C CNN
F 3 "~" H 1150 1850 50  0001 C CNN
	1    1150 1850
	1    0    0    -1  
$EndComp
Text Label 2050 1950 2    50   ~ 0
ICSPDAT
Text Label 2050 2050 2    50   ~ 0
ICSPCLK
Wire Wire Line
	1350 2150 2050 2150
Wire Wire Line
	2050 2050 1350 2050
Wire Wire Line
	1350 1950 2050 1950
Wire Wire Line
	2050 1850 1350 1850
$Comp
L power:GND #PWR01
U 1 1 5DDEA217
P 2050 1850
F 0 "#PWR01" H 2050 1600 50  0001 C CNN
F 1 "GND" H 2055 1677 50  0000 C CNN
F 2 "" H 2050 1850 50  0001 C CNN
F 3 "" H 2050 1850 50  0001 C CNN
	1    2050 1850
	0    -1   -1   0   
$EndComp
NoConn ~ 2050 2150
$Comp
L power:+3.3V #PWR02
U 1 1 5DDEC8B3
P 2250 1300
F 0 "#PWR02" H 2250 1150 50  0001 C CNN
F 1 "+3.3V" H 2265 1473 50  0000 C CNN
F 2 "" H 2250 1300 50  0001 C CNN
F 3 "" H 2250 1300 50  0001 C CNN
	1    2250 1300
	1    0    0    -1  
$EndComp
$Comp
L Device:Jumper JP1
U 1 1 5DDEC905
P 1950 1300
F 0 "JP1" H 1950 1564 50  0000 C CNN
F 1 "Jumper" H 1950 1473 50  0000 C CNN
F 2 "" H 1950 1300 50  0001 C CNN
F 3 "~" H 1950 1300 50  0001 C CNN
	1    1950 1300
	1    0    0    -1  
$EndComp
Wire Wire Line
	1350 1750 1650 1750
Wire Wire Line
	1650 1750 1650 1300
$Comp
L Device:R R3
U 1 1 5DDEF2C6
P 2250 1450
F 0 "R3" H 2320 1496 50  0000 L CNN
F 1 "4.7kR" H 2320 1405 50  0000 L CNN
F 2 "" V 2180 1450 50  0001 C CNN
F 3 "~" H 2250 1450 50  0001 C CNN
	1    2250 1450
	1    0    0    -1  
$EndComp
Wire Wire Line
	2250 1650 2250 1600
Wire Wire Line
	1350 1650 2250 1650
Connection ~ 2250 1300
Wire Notes Line
	2600 950  850  950 
Wire Notes Line
	850  950  850  2250
Wire Notes Line
	850  2250 2600 2250
Wire Notes Line
	2600 2250 2600 950 
Text Notes 900  1050 0    50   ~ 0
Programming Header
Wire Wire Line
	2250 1650 2550 1650
Connection ~ 2250 1650
Text Label 2550 1650 2    50   ~ 0
Vpp
Text Label 6150 3650 0    50   ~ 0
V_sense
Connection ~ 6350 1550
$Comp
L Device:R R4
U 1 1 5DDB4F6B
P 6350 1700
F 0 "R4" H 6420 1746 50  0000 L CNN
F 1 "10kR" H 6420 1655 50  0000 L CNN
F 2 "" V 6280 1700 50  0001 C CNN
F 3 "~" H 6350 1700 50  0001 C CNN
	1    6350 1700
	1    0    0    -1  
$EndComp
$Comp
L Device:R R5
U 1 1 5DDB4FBF
P 6350 2000
F 0 "R5" H 6420 2046 50  0000 L CNN
F 1 "10kR" H 6420 1955 50  0000 L CNN
F 2 "" V 6280 2000 50  0001 C CNN
F 3 "~" H 6350 2000 50  0001 C CNN
	1    6350 2000
	1    0    0    -1  
$EndComp
$Comp
L power:GND #PWR03
U 1 1 5DDB7BFD
P 6350 2150
F 0 "#PWR03" H 6350 1900 50  0001 C CNN
F 1 "GND" H 6355 1977 50  0000 C CNN
F 2 "" H 6350 2150 50  0001 C CNN
F 3 "" H 6350 2150 50  0001 C CNN
	1    6350 2150
	1    0    0    -1  
$EndComp
Wire Wire Line
	6350 1850 6700 1850
Connection ~ 6350 1850
Text Label 6700 1850 2    50   ~ 0
V_sense
Connection ~ 3200 3200
Wire Wire Line
	3200 3200 3200 3300
Wire Wire Line
	3200 3200 3200 3100
Wire Wire Line
	3100 3200 3200 3200
Wire Wire Line
	3100 3300 3100 3200
Connection ~ 2500 3800
Wire Wire Line
	2500 3800 2500 3600
Wire Wire Line
	3200 4750 3200 4700
Wire Wire Line
	3400 4750 3200 4750
Connection ~ 3400 4750
Wire Wire Line
	3400 4750 3400 4800
Wire Wire Line
	3400 4750 3400 4700
Wire Wire Line
	3500 4750 3400 4750
Wire Wire Line
	3500 4700 3500 4750
Wire Wire Line
	3950 3900 3800 3900
Wire Wire Line
	3800 3600 3950 3600
Wire Wire Line
	3900 4000 3800 4000
Wire Wire Line
	3900 3500 3900 4000
Wire Wire Line
	3800 3500 3900 3500
Wire Wire Line
	3850 4100 3800 4100
Wire Wire Line
	3850 3700 3850 4100
Wire Wire Line
	3800 3700 3850 3700
Connection ~ 2550 3900
Wire Wire Line
	2500 4200 2600 4200
Wire Wire Line
	2500 3800 2500 4200
Wire Wire Line
	2600 3800 2500 3800
Wire Wire Line
	2550 3900 2600 3900
Wire Wire Line
	2550 4100 2550 3900
Wire Wire Line
	2600 4100 2550 4100
$Comp
L Driver_Motor:L298HN U1
U 1 1 5DE44EF4
P 3200 4000
F 0 "U1" H 2750 3350 50  0000 C CNN
F 1 "L298HN" H 3550 4650 50  0000 C CNN
F 2 "Package_TO_SOT_THT:TO-220-15_P2.54x2.54mm_StaggerOdd_Lead4.58mm_Vertical" H 3250 3350 50  0001 L CNN
F 3 "http://www.st.com/st-web-ui/static/active/en/resource/technical/document/datasheet/CD00000240.pdf" H 3350 4250 50  0001 C CNN
	1    3200 4000
	-1   0    0    -1  
$EndComp
Text Notes 2850 2950 2    50   ~ 0
H-Bridge
$Comp
L power:+6V #PWR0114
U 1 1 5DD6BF79
P 3200 3100
F 0 "#PWR0114" H 3200 2950 50  0001 C CNN
F 1 "+6V" H 3215 3273 50  0000 C CNN
F 2 "" H 3200 3100 50  0001 C CNN
F 3 "" H 3200 3100 50  0001 C CNN
	1    3200 3100
	-1   0    0    -1  
$EndComp
Text Label 9250 3600 2    50   ~ 0
H_Bridge_EN
Connection ~ 3850 3700
Wire Wire Line
	2200 3600 2500 3600
Wire Wire Line
	2200 3900 2550 3900
Wire Notes Line
	4500 2850 4500 5050
Wire Notes Line
	2450 5050 2450 2850
$Comp
L Device:D_Schottky D7
U 1 1 5DF2480F
P 1900 4450
F 0 "D7" V 1800 4550 50  0000 C CNN
F 1 "1N5817" V 2000 4600 50  0000 C CNN
F 2 "" H 1900 4450 50  0001 C CNN
F 3 "~" H 1900 4450 50  0001 C CNN
	1    1900 4450
	0    1    1    0   
$EndComp
Text Notes 1450 4600 1    50   ~ 0
Shaft
Wire Wire Line
	1450 3250 1750 3250
$Comp
L Device:D_Schottky D6
U 1 1 5DF43F7E
P 1900 4150
F 0 "D6" V 1800 4250 50  0000 C CNN
F 1 "1N5817" V 2000 4300 50  0000 C CNN
F 2 "" H 1900 4150 50  0001 C CNN
F 3 "~" H 1900 4150 50  0001 C CNN
	1    1900 4150
	0    1    1    0   
$EndComp
$Comp
L Device:D_Schottky D5
U 1 1 5DF4454C
P 1750 3400
F 0 "D5" V 1650 3500 50  0000 C CNN
F 1 "1N5817" V 1850 3550 50  0000 C CNN
F 2 "" H 1750 3400 50  0001 C CNN
F 3 "~" H 1750 3400 50  0001 C CNN
	1    1750 3400
	0    1    1    0   
$EndComp
$Comp
L Device:D_Schottky D4
U 1 1 5DF450B5
P 1750 3100
F 0 "D4" V 1650 3200 50  0000 C CNN
F 1 "1N5817" V 1850 3250 50  0000 C CNN
F 2 "" H 1750 3100 50  0001 C CNN
F 3 "~" H 1750 3100 50  0001 C CNN
	1    1750 3100
	0    1    1    0   
$EndComp
$Comp
L power:+6V #PWR06
U 1 1 5DF698E3
P 1900 4000
F 0 "#PWR06" H 1900 3850 50  0001 C CNN
F 1 "+6V" H 1915 4173 50  0000 C CNN
F 2 "" H 1900 4000 50  0001 C CNN
F 3 "" H 1900 4000 50  0001 C CNN
	1    1900 4000
	-1   0    0    -1  
$EndComp
$Comp
L power:+6V #PWR04
U 1 1 5DF6A104
P 1750 2950
F 0 "#PWR04" H 1750 2800 50  0001 C CNN
F 1 "+6V" H 1765 3123 50  0000 C CNN
F 2 "" H 1750 2950 50  0001 C CNN
F 3 "" H 1750 2950 50  0001 C CNN
	1    1750 2950
	-1   0    0    -1  
$EndComp
$Comp
L power:GND #PWR05
U 1 1 5DF70D87
P 1750 3550
F 0 "#PWR05" H 1750 3300 50  0001 C CNN
F 1 "GND" H 1755 3377 50  0000 C CNN
F 2 "" H 1750 3550 50  0001 C CNN
F 3 "" H 1750 3550 50  0001 C CNN
	1    1750 3550
	-1   0    0    -1  
$EndComp
Connection ~ 1750 3250
Wire Wire Line
	1450 4300 1900 4300
Wire Wire Line
	1750 3250 2200 3250
Connection ~ 1900 4300
Wire Wire Line
	1900 4300 2200 4300
$Comp
L power:GND #PWR07
U 1 1 5DF8BDBF
P 1900 4600
F 0 "#PWR07" H 1900 4350 50  0001 C CNN
F 1 "GND" H 1905 4427 50  0000 C CNN
F 2 "" H 1900 4600 50  0001 C CNN
F 3 "" H 1900 4600 50  0001 C CNN
	1    1900 4600
	-1   0    0    -1  
$EndComp
Wire Wire Line
	2200 3900 2200 4300
Wire Wire Line
	1450 4000 1450 4300
Wire Wire Line
	1450 3250 1450 3500
Wire Wire Line
	2200 3250 2200 3600
$Comp
L Device:C C3
U 1 1 5DFAE256
P 2950 3200
F 0 "C3" V 2698 3200 50  0000 C CNN
F 1 "0.1µF" V 2789 3200 50  0000 C CNN
F 2 "" H 2988 3050 50  0001 C CNN
F 3 "~" H 2950 3200 50  0001 C CNN
	1    2950 3200
	0    1    1    0   
$EndComp
Connection ~ 3100 3200
$Comp
L Device:C C4
U 1 1 5DFAF41F
P 3350 3200
F 0 "C4" V 3098 3200 50  0000 C CNN
F 1 "0.1µF" V 3189 3200 50  0000 C CNN
F 2 "" H 3388 3050 50  0001 C CNN
F 3 "~" H 3350 3200 50  0001 C CNN
	1    3350 3200
	0    1    1    0   
$EndComp
Wire Notes Line
	2300 2650 2300 5650
Wire Notes Line
	900  2650 900  5650
Wire Notes Line
	1450 3200 1450 5600
$Comp
L power:GND #PWR09
U 1 1 5DE8259F
P 3400 4800
F 0 "#PWR09" H 3400 4550 50  0001 C CNN
F 1 "GND" H 3405 4627 50  0000 C CNN
F 2 "" H 3400 4800 50  0001 C CNN
F 3 "" H 3400 4800 50  0001 C CNN
	1    3400 4800
	-1   0    0    -1  
$EndComp
$Comp
L power:GND #PWR08
U 1 1 5DE4F413
P 2800 3200
F 0 "#PWR08" H 2800 2950 50  0001 C CNN
F 1 "GND" H 2805 3027 50  0000 C CNN
F 2 "" H 2800 3200 50  0001 C CNN
F 3 "" H 2800 3200 50  0001 C CNN
	1    2800 3200
	0    1    -1   0   
$EndComp
$Comp
L power:GND #PWR010
U 1 1 5DE509DE
P 3500 3200
F 0 "#PWR010" H 3500 2950 50  0001 C CNN
F 1 "GND" H 3505 3027 50  0000 C CNN
F 2 "" H 3500 3200 50  0001 C CNN
F 3 "" H 3500 3200 50  0001 C CNN
	1    3500 3200
	0    -1   1    0   
$EndComp
$Comp
L Device:C C5
U 1 1 5DE78DB5
P 6450 4050
F 0 "C5" H 6250 4100 50  0000 C CNN
F 1 "10nF" H 6250 4000 50  0000 C CNN
F 2 "" H 6488 3900 50  0001 C CNN
F 3 "~" H 6450 4050 50  0001 C CNN
	1    6450 4050
	1    0    0    -1  
$EndComp
$Comp
L power:GND #PWR011
U 1 1 5DE7CE77
P 6450 4200
F 0 "#PWR011" H 6450 3950 50  0001 C CNN
F 1 "GND" H 6455 4027 50  0000 C CNN
F 2 "" H 6450 4200 50  0001 C CNN
F 3 "" H 6450 4200 50  0001 C CNN
	1    6450 4200
	1    0    0    -1  
$EndComp
Wire Notes Line
	7200 2050 8250 2050
Wire Notes Line
	7200 1150 8250 1150
$Comp
L Device:C C1
U 1 1 5DD64367
P 5950 3450
F 0 "C1" H 5800 3350 50  0000 L CNN
F 1 "0.1µF" H 5700 3550 50  0000 L CNN
F 2 "" H 5988 3300 50  0001 C CNN
F 3 "~" H 5950 3450 50  0001 C CNN
	1    5950 3450
	1    0    0    -1  
$EndComp
$Comp
L power:GND #PWR0108
U 1 1 5DD6B33D
P 5950 3600
F 0 "#PWR0108" H 5950 3350 50  0001 C CNN
F 1 "GND" H 5955 3427 50  0000 C CNN
F 2 "" H 5950 3600 50  0001 C CNN
F 3 "" H 5950 3600 50  0001 C CNN
	1    5950 3600
	1    0    0    -1  
$EndComp
Wire Wire Line
	5700 3250 5950 3250
Connection ~ 5700 3250
$Comp
L Device:C C6
U 1 1 5DF03D22
P 5700 3450
F 0 "C6" H 5550 3350 50  0000 L CNN
F 1 "0.1µF" H 5450 3550 50  0000 L CNN
F 2 "" H 5738 3300 50  0001 C CNN
F 3 "~" H 5700 3450 50  0001 C CNN
	1    5700 3450
	1    0    0    -1  
$EndComp
Wire Wire Line
	5700 3250 5700 3300
$Comp
L power:GND #PWR014
U 1 1 5DF07B40
P 5700 3600
F 0 "#PWR014" H 5700 3350 50  0001 C CNN
F 1 "GND" H 5705 3427 50  0000 C CNN
F 2 "" H 5700 3600 50  0001 C CNN
F 3 "" H 5700 3600 50  0001 C CNN
	1    5700 3600
	1    0    0    -1  
$EndComp
Wire Wire Line
	5700 3200 5700 3250
$Comp
L power:+3.3V #PWR0104
U 1 1 5DD6262C
P 5700 3200
F 0 "#PWR0104" H 5700 3050 50  0001 C CNN
F 1 "+3.3V" H 5715 3373 50  0000 C CNN
F 2 "" H 5700 3200 50  0001 C CNN
F 3 "" H 5700 3200 50  0001 C CNN
	1    5700 3200
	1    0    0    -1  
$EndComp
Wire Wire Line
	5950 3300 5950 3250
Connection ~ 5950 3250
Text Label 10000 3900 2    50   ~ 0
SDA
Text Label 10000 3800 2    50   ~ 0
SCL
Wire Wire Line
	9750 3900 9750 3700
Wire Wire Line
	9750 3900 10000 3900
Wire Wire Line
	9500 3800 9500 3700
Connection ~ 9500 3800
Wire Wire Line
	9500 3800 10000 3800
$Comp
L Device:R R1
U 1 1 5DD625A8
P 9500 3550
F 0 "R1" H 9350 3700 50  0000 L CNN
F 1 "2.2kR" V 9600 3450 50  0000 L CNN
F 2 "" V 9430 3550 50  0001 C CNN
F 3 "~" H 9500 3550 50  0001 C CNN
	1    9500 3550
	1    0    0    -1  
$EndComp
$Comp
L Device:R R2
U 1 1 5DD625E0
P 9750 3550
F 0 "R2" H 9650 3700 50  0000 L CNN
F 1 "2.2kR" V 9850 3450 50  0000 L CNN
F 2 "" V 9680 3550 50  0001 C CNN
F 3 "~" H 9750 3550 50  0001 C CNN
	1    9750 3550
	1    0    0    -1  
$EndComp
$Comp
L power:+3.3V #PWR0105
U 1 1 5DD6267D
P 9500 3400
F 0 "#PWR0105" H 9500 3250 50  0001 C CNN
F 1 "+3.3V" H 9515 3573 50  0000 C CNN
F 2 "" H 9500 3400 50  0001 C CNN
F 3 "" H 9500 3400 50  0001 C CNN
	1    9500 3400
	1    0    0    -1  
$EndComp
$Comp
L power:+3.3V #PWR0106
U 1 1 5DD626A4
P 9750 3400
F 0 "#PWR0106" H 9750 3250 50  0001 C CNN
F 1 "+3.3V" H 9765 3573 50  0000 C CNN
F 2 "" H 9750 3400 50  0001 C CNN
F 3 "" H 9750 3400 50  0001 C CNN
	1    9750 3400
	1    0    0    -1  
$EndComp
Connection ~ 9750 3900
Wire Wire Line
	8750 3150 9000 3150
Wire Wire Line
	9000 3150 9000 3200
$Comp
L power:GND #PWR0107
U 1 1 5DD6AB91
P 9000 3200
F 0 "#PWR0107" H 9000 2950 50  0001 C CNN
F 1 "GND" H 9005 3027 50  0000 C CNN
F 2 "" H 9000 3200 50  0001 C CNN
F 3 "" H 9000 3200 50  0001 C CNN
	1    9000 3200
	1    0    0    -1  
$EndComp
Text Label 9250 4000 2    50   ~ 0
H_Bridge_A
Text Label 9250 3700 2    50   ~ 0
H_Bridge_B
Wire Wire Line
	8750 3700 9250 3700
Wire Wire Line
	9250 4000 8750 4000
Wire Wire Line
	5950 3250 6650 3250
Wire Wire Line
	9250 3500 8750 3500
Text Label 4450 3500 2    50   ~ 0
H_Bridge_A
Text Label 4450 3600 2    50   ~ 0
H_Bridge_B
Wire Wire Line
	3950 3600 3950 3900
Wire Wire Line
	4450 3600 3950 3600
Connection ~ 3950 3600
Wire Wire Line
	3900 3500 4450 3500
Connection ~ 3900 3500
Text Label 4450 3700 2    50   ~ 0
H_Bridge_EN
Wire Wire Line
	3850 3700 4450 3700
Wire Wire Line
	9250 3600 8750 3600
Connection ~ 6650 3250
Connection ~ 8750 3250
Wire Wire Line
	8750 3250 8750 3150
Wire Wire Line
	8750 3350 8750 3250
Wire Wire Line
	6650 3250 6650 3350
$Comp
L pic16f1789:PIC16F1789 U5
U 1 1 5DEEC022
P 6950 3400
F 0 "U5" H 8350 1250 50  0000 C CNN
F 1 "PIC16LF1789" H 7700 3724 50  0000 C CNN
F 2 "" H 6950 3400 50  0001 C CNN
F 3 "" H 6950 3400 50  0001 C CNN
	1    6950 3400
	1    0    0    -1  
$EndComp
NoConn ~ 6650 3950
NoConn ~ 6650 4050
NoConn ~ 6650 4150
NoConn ~ 6650 4250
NoConn ~ 6650 4350
NoConn ~ 6650 4600
NoConn ~ 6650 4700
NoConn ~ 6650 4800
NoConn ~ 6650 4900
NoConn ~ 6650 5000
NoConn ~ 8750 5400
NoConn ~ 8750 5300
NoConn ~ 8750 5200
NoConn ~ 8750 5050
NoConn ~ 8750 4950
NoConn ~ 8750 4850
NoConn ~ 8750 4750
NoConn ~ 8750 4650
NoConn ~ 8750 4550
NoConn ~ 8750 4450
NoConn ~ 8750 4350
NoConn ~ 8750 4200
NoConn ~ 8750 4100
$Comp
L block_diagram:LM5110 U2
U 1 1 5E0A7B50
P 4150 1850
F 0 "U2" H 4150 2315 50  0000 C CNN
F 1 "LM5110" H 4150 2224 50  0000 C CNN
F 2 "" H 3950 1950 50  0001 C CNN
F 3 "" H 3950 1950 50  0001 C CNN
	1    4150 1850
	1    0    0    -1  
$EndComp
Wire Wire Line
	3500 1700 3400 1700
Wire Wire Line
	3400 1700 3400 1900
Wire Wire Line
	3400 1900 3500 1900
Wire Wire Line
	3400 1900 3400 2000
Connection ~ 3400 1900
Wire Wire Line
	3500 2000 3400 2000
Connection ~ 3400 2000
Wire Wire Line
	3400 2000 3400 2100
$Comp
L power:GND #PWR012
U 1 1 5E0B2D0D
P 3400 2100
F 0 "#PWR012" H 3400 1850 50  0001 C CNN
F 1 "GND" H 3405 1927 50  0000 C CNN
F 2 "" H 3400 2100 50  0001 C CNN
F 3 "" H 3400 2100 50  0001 C CNN
	1    3400 2100
	1    0    0    -1  
$EndComp
Wire Wire Line
	2950 1800 3500 1800
Text Label 9250 3500 2    50   ~ 0
Duty_Cycle
Wire Wire Line
	4650 1550 4850 1550
$Comp
L power:+VDC #PWR013
U 1 1 5E0D77C2
P 4650 1200
F 0 "#PWR013" H 4650 1100 50  0001 C CNN
F 1 "+VDC" H 4650 1475 50  0000 C CNN
F 2 "" H 4650 1200 50  0001 C CNN
F 3 "" H 4650 1200 50  0001 C CNN
	1    4650 1200
	1    0    0    -1  
$EndComp
Connection ~ 4850 1550
Wire Wire Line
	4850 1550 4900 1550
Wire Wire Line
	4800 1900 4850 1900
Wire Wire Line
	4800 1700 4850 1700
Wire Wire Line
	4850 1700 4850 1550
Wire Wire Line
	4850 1900 4850 1700
Connection ~ 4850 1700
Wire Wire Line
	4800 1800 5000 1800
NoConn ~ 4800 2000
Wire Wire Line
	4650 1200 4650 1550
Connection ~ 4650 1200
Wire Notes Line
	6750 850  6750 2400
Wire Notes Line
	2900 2400 2900 850 
Wire Notes Line
	2900 850  6750 850 
Wire Notes Line
	2900 2400 6750 2400
Wire Notes Line
	900  2650 2300 2650
Wire Notes Line
	900  5650 2300 5650
Wire Notes Line
	7200 1150 7200 2050
Wire Notes Line
	8250 1150 8250 2050
Wire Notes Line
	9150 1150 10450 1150
Wire Notes Line
	10450 1150 10450 2550
Wire Notes Line
	9150 1150 9150 2550
Wire Notes Line
	2450 2850 4500 2850
Wire Notes Line
	2450 5050 4500 5050
$Comp
L Device:D_Schottky D1
U 1 1 5DED991A
P 4950 1200
F 0 "D1" H 4950 984 50  0000 C CNN
F 1 "1N5817" H 4950 1075 50  0000 C CNN
F 2 "" H 4950 1200 50  0001 C CNN
F 3 "~" H 4950 1200 50  0001 C CNN
	1    4950 1200
	-1   0    0    1   
$EndComp
$Comp
L Device:D_Schottky D2
U 1 1 5DEDA85E
P 5550 1550
F 0 "D2" H 5550 1334 50  0000 C CNN
F 1 "1N5817" H 5550 1425 50  0000 C CNN
F 2 "" H 5550 1550 50  0001 C CNN
F 3 "~" H 5550 1550 50  0001 C CNN
	1    5550 1550
	-1   0    0    1   
$EndComp
NoConn ~ 9400 1950
$Comp
L component_hawkseye:hawkseye U4
U 1 1 5EBED16F
P 9950 1850
F 0 "U4" H 10100 1550 50  0000 L CNN
F 1 "hawkseye" H 9950 2150 50  0000 L CNN
F 2 "" H 9700 2200 50  0001 C CNN
F 3 "" H 9700 2200 50  0001 C CNN
	1    9950 1850
	1    0    0    -1  
$EndComp
Wire Wire Line
	6150 3650 6450 3650
Wire Wire Line
	6450 3900 6450 3650
Connection ~ 6450 3650
Wire Wire Line
	6450 3650 6650 3650
Wire Notes Line
	5150 2750 10050 2750
Wire Notes Line
	5150 5950 10050 5950
Wire Wire Line
	8750 3800 9500 3800
Wire Wire Line
	8750 3900 9750 3900
NoConn ~ 6650 4500
$EndSCHEMATC
